﻿10415036365;221992845;2018-12-12 19:46:22;2018-12-12 19:47:21;151.66.214.167;;;;;2;;;;;#DIV/0!;#DIV/0!;#DIV/0!;0;0;;;;;;;;;;;;;2;3;2;3;1;3;3;2;1;2;2;3;2;2;6;English
10413735182;221992845;2018-12-12 10:41:09;2018-12-12 10:51:20;2.233.145.59;;;;;1;;2;;;3,666666667;4;3,5;1;3;4;3;5;3;1;3;4;3;4;4;4;3;#DIV/0!;#DIV/0!;0;;;;;;2;1;3;2;2;3;11;English
10413726196;221992845;2018-12-12 10:34:59;2018-12-12 10:39:49;93.55.242.177;;;;;1;1;;;;4,333333333;4;2,5;4;3;4;4;3;4;4;2;1;3;5;5;3;4;#DIV/0!;#DIV/0!;0;;;;;;2;2;3;1;2;4;2;English
10411047120;221992845;2018-12-11 12:30:06;2018-12-11 12:32:33;131.175.147.135;;;;;1;1;2;;;2,666666667;1,666666667;2,5;5;4;3;2;2;3;5;3;2;4;2;1;2;3;#DIV/0!;#DIV/0!;0;;;;;;4;2;3;1;3;3;5;English
10409297893;221992845;2018-12-10 19:12:20;2018-12-10 19:16:40;2.235.76.98;;;;;2;;;;;#DIV/0!;#DIV/0!;#DIV/0!;0;0;;;;;;;;;;;;;3;2,5;1;4;2;4;1;1;4;2;5;2;2;3;6;English
10409135410;221992845;2018-12-10 18:16:47;2018-12-10 18:19:38;84.248.73.119;;;;;2;;;;;#DIV/0!;#DIV/0!;#DIV/0!;0;0;;;;;;;;;;;;;3;4;2;3;3;4;4;2;1;1;1;1;2;3;6;English
10408810936;221992845;2018-12-10 16:31:14;2018-12-10 16:33:25;131.175.147.133;;;;;1;;2;;;4,333333333;3,666666667;2,5;1;1;5;3;3;3;1;1;1;1;5;5;4;4;#DIV/0!;#DIV/0!;0;;;;;;2;2;3;2;2;3;6;English
10408787792;221992845;2018-12-10 16:21:52;2018-12-10 16:25:24;131.175.147.134;;;;;1;1;;;;3,666666667;3;2;4;1;2;3;3;4;4;3;1;1;5;3;1;3;#DIV/0!;#DIV/0!;0;;;;;;1;2;3;1;2;4;6;English
10408138800;221992845;2018-12-10 11:20:43;2018-12-10 11:31:36;131.175.147.148;;;;;1;;2;;;3,666666667;4;1,75;1;2;4;4;4;3;1;1;1;2;4;4;2;3;#DIV/0!;#DIV/0!;0;;;;;;2;2;3;1;2;3;6;English
10407943410;221992845;2018-12-10 9:15:20;2018-12-10 9:24:12;176.200.170.9;;;;;1;;;3;4;4,333333333;3,333333333;3;1;4;4;2;3;5;1;1;1;4;4;5;5;5;#DIV/0!;#DIV/0!;0;;;;;;1;2;3;2;2;3;6;English
10407316151;221992845;2018-12-09 22:09:17;2018-12-09 22:12:33;151.68.92.33;;;;;1;;;;4;3,666666667;4;3;1;2;3;5;4;4;1;5;1;2;4;3;3;3;#DIV/0!;#DIV/0!;0;;;;;;4;1;3;1;2;3;6;English
10407159823;221992845;2018-12-09 19:06:13;2018-12-09 19:09:30;151.20.137.163;;;;;1;;2;;;4;3;2,5;1;1;4;2;3;4;1;2;2;1;4;4;4;2;#DIV/0!;#DIV/0!;0;;;;;;1;4;4;1;2;4;6;English
10407109217;221992845;2018-12-09 18:05:29;2018-12-09 18:07:24;79.208.176.167;;;;;1;1;2;3;;1,333333333;1,333333333;1;3;4;2;2;1;1;3;1;1;4;1;1;1;1;#DIV/0!;#DIV/0!;0;;;;;;2;4;5;1;3;4;3;English
10406013302;221992845;2018-12-08 16:22:27;2018-12-08 16:24:57;37.162.121.161;;;;;1;1;;;;4;3,666666667;4;1;1;3;3;3;4;1;4;4;1;5;5;3;5;#DIV/0!;#DIV/0!;0;;;;;;3;1;2;1;3;4;6;English
10406008690;221992845;2018-12-08 16:18:03;2018-12-08 16:21:04;176.92.147.114;;;;;1;;2;;;3;3,666666667;1;1;1;5;1;5;3;1;1;1;1;1;5;1;1;#DIV/0!;#DIV/0!;0;;;;;;1;2;4;1;3;3;6;English
10405874011;221992845;2018-12-08 14:05:22;2018-12-08 14:47:06;89.210.193.30;;;;;2;;;;;#DIV/0!;#DIV/0!;#DIV/0!;0;0;;;;;;;;;;;;;3;1;5;5;1;1;1;5;3;4;5;2;1;1;6;English
10405849050;221992845;2018-12-08 13:39:40;2018-12-08 13:40:24;79.131.125.176;;;;;1;;;;;#DIV/0!;#DIV/0!;#DIV/0!;0;0;;;;;;;;;;;;;#DIV/0!;#DIV/0!;0;;;;;;;;;;;;;English
10405810734;221992845;2018-12-08 13:03:55;2018-12-08 13:09:32;147.95.122.242;;;;;2;;;;;#DIV/0!;#DIV/0!;#DIV/0!;0;0;;;;;;;;;;;;;5;2,5;4;5;5;3;2;4;4;1;3;2;2;2;10;English
10405785013;221992845;2018-12-08 12:32:40;2018-12-08 12:34:31;82.173.149.6;;;;;2;;;;;#DIV/0!;#DIV/0!;#DIV/0!;0;0;;;;;;;;;;;;;4;3;1;4;4;5;1;1;3;2;4;2;3;3;2;English
10405774586;221992845;2018-12-08 12:17:27;2018-12-08 12:20:06;84.187.177.71;;;;;1;;2;;;2,333333333;3,333333333;1,5;1;1;3;2;4;2;1;2;1;1;2;4;1;2;#DIV/0!;#DIV/0!;0;;;;;;1;1;4;1;2;2;6;English
10405768337;221992845;2018-12-08 12:09:06;2018-12-08 12:11:02;46.103.61.201;;;;;2;;;;;#DIV/0!;#DIV/0!;#DIV/0!;0;0;;;;;;;;;;;;;3,5;2,5;2;3;4;4;1;2;4;1;3;1;2;2;6;English
10405767823;221992845;2018-12-08 12:07:47;2018-12-08 12:11:25;93.70.14.162;;;;;1;1;2;3;;3;4,666666667;4,25;1;1;2;4;5;2;1;3;4;1;5;5;5;5;#DIV/0!;#DIV/0!;0;;;;;;4;2;3;1;3;4;6;English
10405766200;221992845;2018-12-08 12:05:42;2018-12-08 12:18:29;85.74.26.253;;;;;1;;2;3;;3,333333333;4,666666667;2,75;1;1;2;4;5;5;1;1;4;1;3;5;5;1;#DIV/0!;#DIV/0!;0;;;;;;3;1;4;2;2;4;6;English
10405753923;221992845;2018-12-08 11:47:33;2018-12-08 11:50:21;79.130.60.177;;;;;1;1;;;;5;5;1;1;1;5;5;5;5;1;1;1;1;5;5;1;1;#DIV/0!;#DIV/0!;0;;;;;;2;2;4;2;2;2;6;English
10405742003;221992845;2018-12-08 11:29:16;2018-12-08 11:34:17;178.59.197.28;;;;;1;1;2;;;3,666666667;3,666666667;1;1;1;3;4;4;4;1;1;1;1;4;3;1;1;#DIV/0!;#DIV/0!;0;;;;;;3;2;3;2;2;2;6;English
10405739194;221992845;2018-12-08 11:25:26;2018-12-08 11:28:19;178.59.197.28;;;;;1;;2;;4;1;1;1;1;1;1;1;1;1;1;1;1;1;1;1;1;1;#DIV/0!;#DIV/0!;0;;;;;;2;2;2;1;3;3;6;English
10404688148;221992845;2018-12-07 19:55:24;2018-12-07 19:55:42;94.36.151.7;;;;;1;;;;;#DIV/0!;#DIV/0!;#DIV/0!;0;0;;;;;;;;;;;;;#DIV/0!;#DIV/0!;0;;;;;;;;;;;;;English
10404427347;221992845;2018-12-07 18:10:43;2018-12-07 18:12:49;79.45.91.222;;;;;2;;;;;#DIV/0!;#DIV/0!;#DIV/0!;0;0;;;;;;;;;;;;;3;3;1;5;1;4;2;1;3;2;5;1;2;3;6;English
10403821297;221992845;2018-12-07 14:15:38;2018-12-07 14:20:29;151.82.54.247;;;;;1;;2;;;3,333333333;4;2,75;2;2;2;4;4;4;2;2;3;2;4;4;4;2;#DIV/0!;#DIV/0!;0;;;;;;3;1;1;1;2;3;6;English
10403754312;221992845;2018-12-07 13:40:37;2018-12-07 13:42:09;62.19.56.147;;;;;1;;2;;;4,333333333;3,666666667;3,25;3;3;5;3;4;4;3;3;3;3;4;4;4;3;#DIV/0!;#DIV/0!;0;;;;;;2;1;2;1;2;3;6;English
10403676799;221992845;2018-12-07 12:56:11;2018-12-07 12:57:42;37.160.72.76;;;;;2;;;;;#DIV/0!;#DIV/0!;#DIV/0!;0;0;;;;;;;;;;;;;4;3,5;2;4;4;5;2;2;3;2;3;2;2;4;6;English
10403664528;221992845;2018-12-07 12:49:11;2018-12-07 12:50:33;2.35.8.212;;;;;2;;;;;#DIV/0!;#DIV/0!;#DIV/0!;0;0;;;;;;;;;;;;;2,5;1,5;1;1;4;2;1;1;4;1;4;2;2;3;6;English
10403653522;221992845;2018-12-07 12:42:27;2018-12-07 12:45:36;62.19.12.123;;;;;1;;2;;;3,666666667;2;3,25;4;2;2;1;3;4;4;3;4;2;5;2;4;2;#DIV/0!;#DIV/0!;0;;;;;;2;2;3;1;2;3;6;English
10403650312;221992845;2018-12-07 12:40:18;2018-12-07 12:41:51;91.252.203.98;;;;;2;;;;;#DIV/0!;#DIV/0!;#DIV/0!;0;0;;;;;;;;;;;;;1,5;2;2;2;1;1;3;2;4;1;3;1;2;3;6;English
10403612223;221992845;2018-12-07 12:16:01;2018-12-07 12:20:15;5.157.98.246;;;;;1;;2;3;;4,333333333;4,333333333;3;1;1;4;4;4;5;1;3;4;1;4;5;3;2;#DIV/0!;#DIV/0!;0;;;;;;2;3;5;2;4;4;3;English
10403582726;221992845;2018-12-07 11:57:09;2018-12-07 11:58:32;93.56.167.239;;;;;2;;;;;#DIV/0!;#DIV/0!;#DIV/0!;0;0;;;;;;;;;;;;;2,5;3,5;3;4;1;3;4;3;4;1;4;1;2;3;6;English
10403563103;221992845;2018-12-07 11:44:38;2018-12-07 11:48:29;62.11.174.10;;;;;2;;;;;#DIV/0!;#DIV/0!;#DIV/0!;0;0;;;;;;;;;;;;;3;4;1;5;1;3;5;1;4;1;2;1;2;4;6;English
10403562199;221992845;2018-12-07 11:44:16;2018-12-07 11:47:11;176.200.163.92;;;;;1;;2;;;4,333333333;4,333333333;2,75;2;3;5;4;5;5;2;3;3;3;3;4;1;4;#DIV/0!;#DIV/0!;0;;;;;;4;4;5;2;2;4;6;English
10403556762;221992845;2018-12-07 11:40:16;2018-12-07 11:45:25;93.41.120.126;;;;;1;;2;;;3,333333333;3,333333333;2,25;1;3;4;3;4;3;1;4;3;3;3;3;1;1;#DIV/0!;#DIV/0!;0;;;;;;2;2;4;2;2;4;6;English
10403556121;221992845;2018-12-07 11:38:57;2018-12-07 11:43:06;131.175.147.18;;;;;1;;2;;;3;3;3;3;3;3;3;3;3;3;3;3;3;3;3;3;3;#DIV/0!;#DIV/0!;0;;;;;;4;1;1;2;2;4;6;English
10402334605;221992845;2018-12-06 21:54:10;2018-12-06 21:55:39;92.234.156.43;;;;;2;;;;;#DIV/0!;#DIV/0!;#DIV/0!;0;0;;;;;;;;;;;;;2;4;1;2;2;5;3;1;4;1;2;1;2;4;2;English
10401422771;221992845;2018-12-06 16:13:21;2018-12-06 16:13:31;81.0.2.203;;;;;2;;;;;#DIV/0!;#DIV/0!;#DIV/0!;0;0;;;;;;;;;;;;;#DIV/0!;#DIV/0!;0;;;;;;;;;;;;;English
10401305440;221992845;2018-12-06 15:30:25;2018-12-06 15:34:39;81.0.2.203;;;;;1;;2;;;3,666666667;3;2,25;1;2;5;3;2;4;1;3;2;2;2;4;1;3;#DIV/0!;#DIV/0!;0;;;;;;3;2;3;2;2;3;6;English
10401247735;221992845;2018-12-06 15:08:37;2018-12-06 15:10:32;176.200.162.145;;;;;2;;;;;#DIV/0!;#DIV/0!;#DIV/0!;0;0;;;;;;;;;;;;;3;2;1;3;3;2;2;1;2;2;5;1;2;2;6;English
10401230512;221992845;2018-12-06 15:01:42;2018-12-06 15:03:19;131.175.147.207;;;;;2;;;;;#DIV/0!;#DIV/0!;#DIV/0!;0;0;;;;;;;;;;;;;5;5;5;5;5;5;5;5;2;1;3;1;2;3;6;English
10401193533;221992845;2018-12-06 14:46:10;2018-12-06 14:51:58;131.175.147.207;;;;;1;;2;;;3,333333333;3,666666667;2,25;1;4;3;3;4;3;1;3;1;4;4;4;3;2;#DIV/0!;#DIV/0!;0;;;;;;1;2;3;2;2;3;6;English
10401173823;221992845;2018-12-06 14:37:28;2018-12-06 14:42:01;131.175.147.207;;;;;1;1;;;;3,666666667;4;1,25;1;2;4;5;4;2;1;1;2;2;5;3;1;1;#DIV/0!;#DIV/0!;0;;;;;;1;2;3;1;2;3;6;English
10416420174;221993133;2018-12-13 10:06:23;2018-12-13 10:07:50;131.175.147.135;;;;;2;;;;;#DIV/0!;#DIV/0!;#DIV/0!;0;0;;;;;;;;;;;;;4;3;1;4;4;4;2;1;;;;;;;;Italian
10416332465;221993133;2018-12-13 8:58:02;2018-12-13 9:02:29;95.248.208.7;;;;;1;;2;;;3,333333333;2,666666667;2,5;1;2;4;1;3;2;1;1;4;2;4;4;1;4;#DIV/0!;#DIV/0!;0;;;;;;3;1;3;2;2;3;6;Italian
10416326585;221993133;2018-12-13 8:53:55;2018-12-13 8:55:38;2.44.61.120;;;;;1;1;2;;;4,666666667;5;2,25;1;1;5;5;5;5;1;1;3;1;4;5;4;1;#DIV/0!;#DIV/0!;0;;;;;;2;5;5;2;2;2;6;Italian
10415806792;221993133;2018-12-13 1:36:57;2018-12-13 1:39:41;151.38.34.71;;;;;1;;2;;;4,333333333;3,666666667;2,5;3;2;4;4;4;4;3;3;3;2;5;3;2;2;#DIV/0!;#DIV/0!;0;;;;;;3;1;2;1;2;3;6;Italian
10415553080;221993133;2018-12-12 23:15:07;2018-12-12 23:16:41;93.37.80.52;;;;;2;;;;;#DIV/0!;#DIV/0!;#DIV/0!;0;0;;;;;;;;;;;;;4,5;2,5;4;5;4;3;2;4;1;4;4;2;2;5;11;Italian
10415424036;221993133;2018-12-12 22:18:56;2018-12-12 22:20:49;151.38.215.148;;;;;1;1;2;;;4,666666667;4,666666667;1,75;1;1;5;5;5;4;1;1;1;1;5;4;1;4;#DIV/0!;#DIV/0!;0;;;;;;3;1;3;2;2;3;6;Italian
10415317419;221993133;2018-12-12 21:35:00;2018-12-12 21:37:20;188.216.213.106;;;;;1;1;2;;;3,333333333;4;2,5;1;1;2;4;5;3;1;3;3;1;5;3;3;1;#DIV/0!;#DIV/0!;0;;;;;;3;2;4;1;2;3;6;Italian
10415279539;221993133;2018-12-12 21:20:01;2018-12-12 21:21:59;95.244.165.203;;;;;2;;;;;#DIV/0!;#DIV/0!;#DIV/0!;0;0;;;;;;;;;;;;;4;4;3;3;5;5;3;3;1;1;5;2;2;2;6;Italian
10415277656;221993133;2018-12-12 21:19:12;2018-12-12 21:20:43;151.49.29.112;;;;;2;;;;;#DIV/0!;#DIV/0!;#DIV/0!;0;0;;;;;;;;;;;;;4;3;1;4;4;4;2;1;4;1;2;2;2;3;6;Italian
10415270046;221993133;2018-12-12 21:16:20;2018-12-12 21:18:30;158.148.75.126;;;;;1;1;2;;;3,333333333;3,333333333;3;1;1;4;3;4;3;1;3;4;1;3;3;2;3;#DIV/0!;#DIV/0!;0;;;;;;1;2;4;1;2;2;6;Italian
10415229834;221993133;2018-12-12 21:00:12;2018-12-12 21:04:13;5.90.23.199;;;;;1;1;2;;;4,333333333;4,666666667;2,25;1;1;3;5;4;5;1;2;1;1;5;5;1;5;#DIV/0!;#DIV/0!;0;;;;;;3;3;5;2;2;2;6;Italian
10415197169;221993133;2018-12-12 20:47:42;2018-12-12 20:50:08;80.116.81.40;;;;;1;1;2;3;;4,666666667;4;3,5;1;1;4;3;4;5;1;4;4;1;5;5;4;2;#DIV/0!;#DIV/0!;0;;;;;;4;1;3;2;2;3;6;Italian
10415154665;221993133;2018-12-12 20:31:42;2018-12-12 20:35:12;87.16.11.81;;;;;1;1;2;;;4,333333333;3,333333333;1;1;1;4;2;5;4;1;1;1;1;5;3;1;1;#DIV/0!;#DIV/0!;0;;;;;;2;2;4;2;2;2;6;Italian
10414850152;221993133;2018-12-12 18:35:13;2018-12-12 18:36:45;79.40.68.187;;;;;2;;;;;#DIV/0!;#DIV/0!;#DIV/0!;0;0;;;;;;;;;;;;;2,5;2,5;1;1;4;4;1;1;4;1;2;2;2;2;6;Italian
10414690506;221993133;2018-12-12 17:40:11;2018-12-12 17:42:33;158.148.172.122;;;;;2;;;;;#DIV/0!;#DIV/0!;#DIV/0!;0;0;;;;;;;;;;;;;2,5;2,5;2;1;4;4;1;2;3;2;3;1;5;4;3;Italian
10414655461;221993133;2018-12-12 17:28:39;2018-12-12 17:30:35;93.71.241.103;;;;;2;;;;;#DIV/0!;#DIV/0!;#DIV/0!;0;0;;;;;;;;;;;;;4;1,5;1;4;4;2;1;1;2;2;3;1;1;1;6;Italian
10414492514;221993133;2018-12-12 16:36:08;2018-12-12 16:41:28;91.253.18.171;;;;;1;;2;3;;4,333333333;4,333333333;3,75;3;2;4;5;4;4;3;3;4;2;5;4;4;4;#DIV/0!;#DIV/0!;0;;;;;;3;1;3;2;2;3;6;Italian
10414437549;221993133;2018-12-12 16:17:23;2018-12-12 16:35:53;37.162.4.214;;;;;1;;2;3;;4;3,666666667;3,75;1;1;4;2;4;3;1;3;3;1;5;5;5;4;#DIV/0!;#DIV/0!;0;;;;;;3;1;3;1;2;3;6;Italian
10414426243;221993133;2018-12-12 16:13:54;2018-12-12 16:16:23;151.68.58.247;;;;;1;;2;3;;4,666666667;4,666666667;4,5;3;4;5;4;5;4;3;4;4;4;5;5;5;5;#DIV/0!;#DIV/0!;0;;;;;;2;2;3;2;2;3;6;Italian
10414422391;221993133;2018-12-12 16:12:36;2018-12-12 16:19:46;37.160.8.20;;;;;1;1;2;3;;4;4,333333333;2,75;1;1;4;5;4;4;1;3;1;1;4;4;4;3;#DIV/0!;#DIV/0!;0;;;;;;3;1;2;2;2;3;6;Italian
10414353967;221993133;2018-12-12 15:23:37;2018-12-12 15:52:17;151.18.34.235;;;;;1;1;2;;;3,333333333;3,666666667;2;1;1;3;4;4;3;1;1;1;1;4;3;3;3;#DIV/0!;#DIV/0!;0;;;;;;4;1;3;2;2;2;6;Italian
10414301527;221993133;2018-12-12 15:31:00;2018-12-12 15:32:54;5.90.21.147;;;;;2;;;;;#DIV/0!;#DIV/0!;#DIV/0!;0;0;;;;;;;;;;;;;3;2,5;1;3;3;4;1;1;4;1;2;1;2;3;6;Italian
10414277359;221993133;2018-12-12 15:22:51;2018-12-12 15:25:17;37.159.71.33;;;;;2;;;;;#DIV/0!;#DIV/0!;#DIV/0!;0;0;;;;;;;;;;;;;2,5;2;1;1;4;2;2;1;3;1;3;2;2;4;6;Italian
10414260544;221993133;2018-12-12 15:16:53;2018-12-12 15:19:20;5.90.45.101;;;;;2;;;;;#DIV/0!;#DIV/0!;#DIV/0!;0;0;;;;;;;;;;;;;3;3;1;2;4;4;2;1;4;1;2;1;2;4;6;Italian
10414258593;221993133;2018-12-12 15:16:12;2018-12-12 15:23:00;93.144.154.87;;;;;1;;2;;;4;3,666666667;1;1;1;4;4;4;4;1;1;1;1;4;3;1;1;#DIV/0!;#DIV/0!;0;;;;;;4;1;2;1;2;4;6;Italian
10414253955;221993133;2018-12-12 15:13:50;2018-12-12 15:20:30;93.36.221.115;;;;;1;;2;;;4;3,666666667;3,5;3;4;3;3;5;4;3;1;5;4;5;3;4;4;#DIV/0!;#DIV/0!;0;;;;;;3;3;4;2;2;2;6;Italian
10414176215;221993133;2018-12-12 14:46:42;2018-12-12 14:48:31;176.200.148.49;;;;;2;;;;;#DIV/0!;#DIV/0!;#DIV/0!;0;0;;;;;;;;;;;;;3;3;2;2;4;4;2;2;3;1;4;2;2;3;6;Italian
10414148123;221993133;2018-12-12 14:35:51;2018-12-12 14:47:11;5.169.49.190;;;;;1;1;2;;4;3,333333333;4;3,75;5;4;5;4;4;2;5;4;3;4;3;4;4;4;#DIV/0!;#DIV/0!;0;;;;;;2;1;1;2;4;2;2;Italian
10414141378;221993133;2018-12-12 14:33:08;2018-12-12 14:37:28;176.200.178.32;;;;;1;;2;;4;4,666666667;4,333333333;3;1;1;4;5;5;5;1;3;3;1;5;3;3;3;#DIV/0!;#DIV/0!;0;;;;;;2;1;1;2;5;2;2;Italian
10414132738;221993133;2018-12-12 14:29:37;2018-12-12 14:29:55;95.74.86.78;;;;;1;;;;;#DIV/0!;#DIV/0!;#DIV/0!;0;0;;;;;;;;;;;;;#DIV/0!;#DIV/0!;0;;;;;;;;;;;;;Italian
10414102761;221993133;2018-12-12 14:17:00;2018-12-12 14:21:23;87.13.76.9;;;;;1;;2;;;5;4;3,5;3;1;5;4;4;5;3;3;3;1;5;4;5;3;#DIV/0!;#DIV/0!;0;;;;;;2;2;3;2;4;2;2;Italian
10414098921;221993133;2018-12-12 14:15:48;2018-12-12 14:47:49;176.200.121.16;;;;;2;;;;;#DIV/0!;#DIV/0!;#DIV/0!;0;0;;;;;;;;;;;;;4;4;2;4;4;5;3;2;4;2;4;1;2;3;6;Italian
10414096079;221993133;2018-12-12 14:14:23;2018-12-12 14:19:29;158.148.67.250;;;;;1;;2;;;4;4,333333333;3,5;3;3;4;4;5;4;3;3;5;3;4;4;3;3;#DIV/0!;#DIV/0!;0;;;;;;2;2;4;2;5;2;4;Italian
10414090916;221993133;2018-12-12 14:12:11;2018-12-12 14:14:04;131.175.147.132;;;;;1;;;3;;3;2,333333333;3,5;1;1;4;2;3;2;1;3;3;1;3;2;4;4;#DIV/0!;#DIV/0!;0;;;;;;4;1;4;1;2;4;6;Italian
10414086356;221993133;2018-12-12 14:10:19;2018-12-12 14:13:01;151.38.84.210;;;;;1;1;;;;3;3,666666667;2,5;1;1;2;4;4;3;1;4;3;1;4;3;1;2;#DIV/0!;#DIV/0!;0;;;;;;4;2;4;2;2;3;6;Italian
10414061479;221993133;2018-12-12 13:58:45;2018-12-12 14:00:50;158.148.80.82;;;;;2;;;;;#DIV/0!;#DIV/0!;#DIV/0!;0;0;;;;;;;;;;;;;2,5;3;3;2;3;4;2;3;4;2;4;1;1;2;1;Italian
10414054644;221993133;2018-12-12 13:55:08;2018-12-12 13:59:24;158.148.93.18;;;;;1;;2;;;3,666666667;4,333333333;2,75;1;1;3;4;5;5;1;3;3;1;3;4;3;2;#DIV/0!;#DIV/0!;0;;;;;;2;3;3;1;5;1;8;Italian
10414039060;221993133;2018-12-12 13:47:08;2018-12-12 13:47:26;151.34.28.224;;;;;1;;;;;#DIV/0!;#DIV/0!;#DIV/0!;0;0;;;;;;;;;;;;;#DIV/0!;#DIV/0!;0;;;;;;;;;;;;;Italian
10414035839;221993133;2018-12-12 13:45:13;2018-12-12 13:48:31;5.170.75.181;;;;;1;;2;;;3,333333333;3,333333333;2;1;1;4;3;4;1;1;1;1;1;5;3;4;2;#DIV/0!;#DIV/0!;0;;;;;;3;2;4;1;4;2;11;Italian
10414027282;221993133;2018-12-12 13:40:32;2018-12-12 13:45:52;151.18.22.155;;;;;1;;2;;;3,333333333;3,333333333;1,75;1;1;4;4;4;2;1;1;1;1;4;2;1;4;#DIV/0!;#DIV/0!;0;;;;;;2;2;2;2;1;1;6;Italian
10414015518;221993133;2018-12-12 13:34:31;2018-12-12 13:36:26;5.89.140.225;;;;;2;;;;;#DIV/0!;#DIV/0!;#DIV/0!;0;0;;;;;;;;;;;;;2,5;3,5;2;1;4;5;2;2;2;2;4;1;2;3;6;Italian
10414013781;221993133;2018-12-12 13:33:11;2018-12-12 13:39:06;188.216.192.206;;;;;1;;;;4;4,333333333;4,333333333;2;1;1;5;3;5;4;1;3;1;1;4;5;1;3;#DIV/0!;#DIV/0!;0;;;;;;2;2;4;2;5;2;4;Italian
10414005676;221993133;2018-12-12 13:28:53;2018-12-12 13:30:20;37.159.76.214;;;;;2;;;;;#DIV/0!;#DIV/0!;#DIV/0!;0;0;;;;;;;;;;;;;3;3,5;4;2;4;4;3;4;4;1;2;1;2;2;6;Italian
10414000459;221993133;2018-12-12 13:25:43;2018-12-12 13:28:27;37.182.13.156;;;;;1;;;;4;4;4,333333333;2,5;1;1;4;4;5;3;1;5;1;1;5;4;1;3;#DIV/0!;#DIV/0!;0;;;;;;4;1;1;1;2;3;6;Italian
10413997655;221993133;2018-12-12 13:24:10;2018-12-12 13:31:19;131.175.147.135;;;;;1;;2;;;3,666666667;3,666666667;2,75;2;3;4;3;4;3;2;3;3;3;4;4;2;3;#DIV/0!;#DIV/0!;0;;;;;;1;1;2;2;2;3;6;Italian
10413997108;221993133;2018-12-12 13:22:31;2018-12-12 13:29:41;5.90.92.135;;;;;1;;2;3;;4;4,333333333;2,5;1;2;5;4;5;3;1;2;4;2;4;4;2;2;#DIV/0!;#DIV/0!;0;;;;;;2;1;2;2;2;3;6;Italian
10413871618;221993133;2018-12-12 12:08:23;2018-12-12 12:10:44;5.90.197.178;;;;;2;;;;;#DIV/0!;#DIV/0!;#DIV/0!;0;0;;;;;;;;;;;;;4;3;1;3;5;4;2;1;4;2;3;1;2;3;3;Italian
10413818555;221993133;2018-12-12 11:34:39;2018-12-12 11:36:59;130.192.232.10;;;;;2;;;;;#DIV/0!;#DIV/0!;#DIV/0!;0;0;;;;;;;;;;;;;2,5;4;1;2;3;5;3;1;4;2;4;1;2;2;3;Italian
10413785652;221993133;2018-12-12 11:13:22;2018-12-12 11:17:22;131.175.147.132;;;;;1;;2;;;4;4;1;1;1;4;3;4;4;1;1;1;1;4;5;1;1;#DIV/0!;#DIV/0!;0;;;;;;1;1;2;1;2;3;6;Italian
10413775640;221993133;2018-12-12 11:06:15;2018-12-12 11:11:37;131.175.147.132;;;;;1;;2;;;3,666666667;3,666666667;2,5;2;3;4;3;4;4;2;2;2;3;3;4;2;4;#DIV/0!;#DIV/0!;0;;;;;;4;1;1;1;2;3;6;Italian
10413774202;221993133;2018-12-12 11:05:58;2018-12-12 11:12:11;131.175.147.132;;;;;2;;;;;#DIV/0!;#DIV/0!;#DIV/0!;0;0;;;;;;;;;;;;;1,5;3,5;5;2;1;3;4;5;1;1;2;1;2;3;6;Italian
10413773832;221993133;2018-12-12 11:05:54;2018-12-12 11:09:28;131.175.147.132;;;;;2;;;;;#DIV/0!;#DIV/0!;#DIV/0!;0;0;;;;;;;;;;;;;2;3,5;5;1;3;4;3;5;4;1;1;1;2;3;6;Italian
10413740872;221993133;2018-12-12 10:44:40;2018-12-12 10:46:33;176.200.158.128;;;;;2;;;;;#DIV/0!;#DIV/0!;#DIV/0!;0;0;;;;;;;;;;;;;2,5;2;3;2;3;2;2;3;3;1;2;1;2;3;3;Italian
10413740391;221993133;2018-12-12 10:44:10;2018-12-12 10:46:02;109.49.162.53;;;;;2;;;;;#DIV/0!;#DIV/0!;#DIV/0!;0;0;;;;;;;;;;;;;5;5;1;5;5;5;5;1;4;1;1;1;2;2;6;Italian
10413739843;221993133;2018-12-12 10:44:06;2018-12-12 10:45:08;37.159.82.105;;;;;2;;;;;#DIV/0!;#DIV/0!;#DIV/0!;0;0;;;;;;;;;;;;;3;3;3;3;3;3;3;3;2;1;1;1;2;3;6;Italian
10413701133;221993133;2018-12-12 10:18:11;2018-12-12 10:20:46;87.13.18.121;;;;;1;;2;3;;2,333333333;1;1,75;1;1;2;1;1;1;1;4;1;1;4;1;1;1;#DIV/0!;#DIV/0!;0;;;;;;2;2;3;1;5;2;2;Italian
10413700803;221993133;2018-12-12 10:17:48;2018-12-12 10:22:36;131.175.147.135;;;;;1;1;2;;;3;2,666666667;2,5;1;1;4;1;4;1;1;4;2;1;4;3;2;2;#DIV/0!;#DIV/0!;0;;;;;;1;1;3;1;2;3;6;Italian
10413700557;221993133;2018-12-12 10:17:51;2018-12-12 10:20:02;131.175.147.147;;;;;1;;2;;;3,333333333;3,333333333;2,5;1;1;2;4;3;4;1;4;4;1;4;3;1;1;#DIV/0!;#DIV/0!;0;;;;;;2;2;4;2;2;3;6;Italian
10413677870;221993133;2018-12-12 10:02:01;2018-12-12 10:06:17;151.37.67.43;;;;;1;1;2;;;4,333333333;3,333333333;2;1;1;5;1;4;3;1;1;1;1;5;5;5;1;#DIV/0!;#DIV/0!;0;;;;;;2;3;3;2;5;2;2;Italian
10413645839;221993133;2018-12-12 9:41:19;2018-12-12 9:42:25;79.43.46.91;;;;;2;;;;;#DIV/0!;#DIV/0!;#DIV/0!;0;0;;;;;;;;;;;;;3,5;1,5;1;4;3;2;1;1;2;2;4;1;2;2;6;Italian
10413561006;221993133;2018-12-12 8:37:43;2018-12-12 8:41:35;93.40.185.155;;;;;2;;;;;#DIV/0!;#DIV/0!;#DIV/0!;0;0;;;;;;;;;;;;;3;2,5;1;4;2;4;1;1;1;2;5;2;2;3;6;Italian
10412456606;221993133;2018-12-11 21:26:36;2018-12-11 21:31:10;87.14.142.238;;;;;1;;2;;;3,666666667;4,333333333;3,25;1;1;3;5;3;3;1;1;5;1;5;5;4;3;#DIV/0!;#DIV/0!;0;;;;;;4;5;5;2;5;3;11;Italian
10412165148;221993133;2018-12-11 19:41:47;2018-12-11 19:45:06;80.180.71.100;;;;;1;1;;;;3,333333333;3,666666667;1,5;1;1;3;4;4;2;1;1;1;1;5;3;1;3;#DIV/0!;#DIV/0!;0;;;;;;2;1;2;2;5;4;10;Italian
10412161454;221993133;2018-12-11 19:39:50;2018-12-11 19:42:35;79.16.153.236;;;;;2;;;;;#DIV/0!;#DIV/0!;#DIV/0!;0;0;;;;;;;;;;;;;2,5;3;4;4;1;4;2;4;3;1;2;2;2;3;6;Italian
10411851044;221993133;2018-12-11 17:51:52;2018-12-11 17:59:23;37.162.95.223;;;;;1;;2;;;4;4,666666667;2;1;3;4;5;5;4;1;1;1;3;4;4;3;3;#DIV/0!;#DIV/0!;0;;;;;;2;2;5;2;5;1;2;Italian
10411105649;221993133;2018-12-11 13:05:47;2018-12-11 13:11:01;176.200.65.21;;;;;2;;;;;#DIV/0!;#DIV/0!;#DIV/0!;0;0;;;;;;;;;;;;;3;1;2;4;2;1;1;2;2;2;5;1;2;3;6;Italian
10411030279;221993133;2018-12-11 12:19:18;2018-12-11 12:22:31;37.165.77.197;;;;;1;;2;3;;4,333333333;4;2,5;1;1;4;4;4;5;1;2;1;1;4;4;4;3;#DIV/0!;#DIV/0!;0;;;;;;3;1;2;1;2;3;6;Italian
10410956395;221993133;2018-12-11 11:32:52;2018-12-11 11:37:56;176.200.142.189;;;;;1;;2;;;3,666666667;3,333333333;3;2;1;4;4;3;3;2;2;4;1;4;3;4;2;#DIV/0!;#DIV/0!;0;;;;;;2;3;5;1;2;3;6;Italian
10410903254;221993133;2018-12-11 10:58:23;2018-12-11 11:01:18;130.251.243.121;;;;;1;;2;;;3,666666667;2,666666667;2,75;2;1;3;3;4;4;2;5;4;1;4;1;1;1;#DIV/0!;#DIV/0!;0;;;;;;3;2;2;1;2;2;6;Italian
10410885743;221993133;2018-12-11 10:47:08;2018-12-11 10:48:52;176.200.152.195;;;;;2;;;;;#DIV/0!;#DIV/0!;#DIV/0!;0;0;;;;;;;;;;;;;2;2;2;1;3;3;1;2;2;2;4;1;2;3;6;Italian
10410870401;221993133;2018-12-11 10:36:45;2018-12-11 10:42:00;176.200.138.214;;;;;1;;2;;;3,333333333;2,666666667;2,75;1;1;4;3;4;3;1;3;1;1;3;1;4;3;#DIV/0!;#DIV/0!;0;;;;;;2;2;4;2;5;1;4;Italian
10410863689;221993133;2018-12-11 10:32:39;2018-12-11 13:17:41;188.11.30.176;;;;;2;;;;;#DIV/0!;#DIV/0!;#DIV/0!;0;0;;;;;;;;;;;;;3;3;3;3;3;3;3;3;3;1;3;1;5;1;4;Italian
10410858225;221993133;2018-12-11 10:29:05;2018-12-11 10:38:46;5.90.192.81;;;;;2;;;;;#DIV/0!;#DIV/0!;#DIV/0!;0;0;;;;;;;;;;;;;3;3;1;4;2;4;2;1;4;2;4;1;2;2;6;Italian
10410852428;221993133;2018-12-11 10:25:32;2018-12-11 10:27:58;131.175.147.1;;;;;1;;2;;;1;1;1;1;1;1;1;1;1;1;1;1;1;1;1;1;1;#DIV/0!;#DIV/0!;0;;;;;;2;1;4;1;2;2;6;Italian
10410839776;221993133;2018-12-11 10:17:43;2018-12-11 10:19:51;176.200.121.94;;;;;2;;;;;#DIV/0!;#DIV/0!;#DIV/0!;0;0;;;;;;;;;;;;;3;3,5;4;2;4;4;3;4;3;1;2;1;2;3;6;Italian
10410727428;221993133;2018-12-11 9:01:26;2018-12-11 9:03:26;93.146.143.24;;;;;2;;;;;#DIV/0!;#DIV/0!;#DIV/0!;0;0;;;;;;;;;;;;;3,5;4;1;3;4;5;3;1;4;1;1;2;2;3;6;Italian
10410692364;221993133;2018-12-11 8:35:34;2018-12-11 8:39:53;188.218.75.27;;;;;1;;2;;;4;4,666666667;3;1;1;3;5;5;4;1;4;2;1;5;4;1;5;#DIV/0!;#DIV/0!;0;;;;;;2;2;4;2;5;3;3;Italian
10409861935;221993133;2018-12-10 22:47:25;2018-12-10 22:51:51;93.43.201.144;;;;;1;;2;;4;4,333333333;4,333333333;3,25;1;1;5;5;5;3;1;5;4;1;5;3;1;3;#DIV/0!;#DIV/0!;0;;;;;;2;2;4;2;2;3;6;Italian
10409719709;221993133;2018-12-10 21:51:49;2018-12-10 21:54:04;37.227.248.96;;;;;2;;;;;#DIV/0!;#DIV/0!;#DIV/0!;0;0;;;;;;;;;;;;;1,5;1,5;3;1;2;2;1;3;4;2;4;1;2;3;6;Italian
10409514594;221993133;2018-12-10 20:33:50;2018-12-10 20:44:16;5.90.94.117;;;;;1;;2;;;3,333333333;3;2,25;1;1;4;3;3;2;1;2;2;1;4;3;2;3;#DIV/0!;#DIV/0!;0;;;;;;2;1;4;2;2;3;6;Italian
10409409907;221993133;2018-12-10 19:54:41;2018-12-10 19:59:06;188.217.253.244;;;;;2;;;;;#DIV/0!;#DIV/0!;#DIV/0!;0;0;;;;;;;;;;;;;3,5;3,5;4;3;4;3;4;4;;;;;;;;Italian
10409237462;221993133;2018-12-10 18:52:09;2018-12-10 18:52:37;91.252.112.191;;;;;1;;;;;#DIV/0!;#DIV/0!;#DIV/0!;0;0;;;;;;;;;;;;;#DIV/0!;#DIV/0!;0;;;;;;;;;;;;;Italian
10409231272;221993133;2018-12-10 18:50:12;2018-12-10 18:50:35;2.235.76.98;;;;;1;;;;;#DIV/0!;#DIV/0!;#DIV/0!;0;0;;;;;;;;;;;;;#DIV/0!;#DIV/0!;0;;;;;;;;;;;;;Italian
10409223188;221993133;2018-12-10 18:47:17;2018-12-10 18:50:09;37.159.68.132;;;;;1;;2;;;3,333333333;4;2;1;1;3;4;4;2;1;1;1;1;5;4;3;3;#DIV/0!;#DIV/0!;0;;;;;;1;2;4;2;2;3;6;Italian
10409214575;221993133;2018-12-10 18:44:30;2018-12-10 18:46:41;62.42.146.130;;;;;1;;2;;;4;4;3;2;1;5;4;5;5;2;5;2;1;2;3;1;4;#DIV/0!;#DIV/0!;0;;;;;;3;3;3;2;2;2;6;Italian
10409208670;221993133;2018-12-10 18:42:20;2018-12-10 18:45:17;93.34.119.40;;;;;1;;2;;;4,333333333;4,333333333;3,5;2;1;4;5;5;4;2;4;4;1;5;3;3;3;#DIV/0!;#DIV/0!;0;;;;;;2;2;3;2;2;3;10;Italian
10409206203;221993133;2018-12-10 18:41:34;2018-12-10 18:42:22;5.90.9.146;;;;;2;;;;;#DIV/0!;#DIV/0!;#DIV/0!;0;0;;;;;;;;;;;;;4;3;1;4;4;3;3;1;;;;;;;;Italian
10409202011;221993133;2018-12-10 18:40:13;2018-12-10 18:41:58;93.56.73.110;;;;;2;;;;;#DIV/0!;#DIV/0!;#DIV/0!;0;0;;;;;;;;;;;;;1,5;2;4;1;2;1;3;4;4;1;2;1;2;3;6;Italian
10409201330;221993133;2018-12-10 18:39:43;2018-12-10 18:43:08;93.66.122.119;;;;;1;;2;;;4,333333333;4;1,5;2;1;5;4;3;4;2;1;1;1;4;5;1;3;#DIV/0!;#DIV/0!;0;;;;;;4;1;3;2;5;3;10;Italian
10409197364;221993133;2018-12-10 18:38:13;2018-12-10 18:40:46;160.80.135.151;;;;;2;;;;;#DIV/0!;#DIV/0!;#DIV/0!;0;0;;;;;;;;;;;;;3;4;3;2;4;5;3;3;4;1;2;2;2;3;6;Italian
10409192935;221993133;2018-12-10 18:36:52;2018-12-10 18:42:39;93.56.73.110;;;;;1;;;;4;4;3;3;1;1;4;3;3;3;1;3;3;1;5;3;3;3;#DIV/0!;#DIV/0!;0;;;;;;4;1;2;1;2;3;6;Italian
10409188799;221993133;2018-12-10 18:35:41;2018-12-10 18:36:37;5.90.6.25;;;;;1;;;;;#DIV/0!;#DIV/0!;#DIV/0!;0;0;;;;;;;;;;;;;#DIV/0!;#DIV/0!;0;;;;;;;;;;;;;Italian
10409170421;221993133;2018-12-10 18:28:53;2018-12-10 18:32:14;151.64.29.78;;;;;2;;;;;#DIV/0!;#DIV/0!;#DIV/0!;0;0;;;;;;;;;;;;;2;3,5;4;1;3;3;4;4;3;1;4;1;2;3;6;Italian
10409162926;221993133;2018-12-10 18:26:34;2018-12-10 18:28:20;79.41.7.132;;;;;1;;2;;;4;4;3;1;3;4;4;4;4;1;4;4;3;4;4;1;3;#DIV/0!;#DIV/0!;0;;;;;;2;2;4;1;2;2;6;Italian
10409135833;221993133;2018-12-10 18:17:10;2018-12-10 18:20:07;212.216.142.169;;;;;1;1;2;3;;3,333333333;4,333333333;3;1;5;4;4;5;2;1;3;3;5;4;4;2;4;#DIV/0!;#DIV/0!;0;;;;;;1;1;2;1;2;4;6;Italian
10409129097;221993133;2018-12-10 18:14:55;2018-12-10 18:17:24;93.40.125.153;;;;;1;1;;;;4;4,333333333;3,25;1;1;4;4;5;4;1;4;4;1;4;4;1;4;#DIV/0!;#DIV/0!;0;;;;;;3;2;1;1;3;4;6;Italian
10409128477;221993133;2018-12-10 18:14:34;2018-12-10 18:22:22;131.175.147.134;;;;;2;;;;;#DIV/0!;#DIV/0!;#DIV/0!;0;0;;;;;;;;;;;;;3,5;2,5;5;5;2;4;1;5;4;1;4;1;2;3;6;Italian
10409112055;221993133;2018-12-10 18:09:09;2018-12-10 18:13:06;5.90.232.192;;;;;1;;2;;;4;4;2,5;2;1;4;4;4;4;2;2;3;1;4;4;1;4;#DIV/0!;#DIV/0!;0;;;;;;2;2;4;1;2;3;6;Italian
10409108385;221993133;2018-12-10 18:07:51;2018-12-10 18:10:02;91.253.75.1;;;;;2;;;;;#DIV/0!;#DIV/0!;#DIV/0!;0;0;;;;;;;;;;;;;1,5;3;1;2;1;5;1;1;4;2;4;1;2;2;6;Italian
10409108136;221993133;2018-12-10 18:08:07;2018-12-10 18:10:06;37.227.183.20;;;;;2;;;;;#DIV/0!;#DIV/0!;#DIV/0!;0;0;;;;;;;;;;;;;3;3;3;3;3;3;3;3;4;1;3;2;2;3;3;Italian
10409107190;221993133;2018-12-10 18:07:42;2018-12-10 18:09:49;5.90.6.25;;;;;1;;;;4;3;4;3;3;1;3;4;4;2;3;4;4;1;4;4;1;3;#DIV/0!;#DIV/0!;0;;;;;;1;2;3;1;2;2;6;Italian
10409051251;221993133;2018-12-10 17:48:53;2018-12-10 17:50:37;93.71.82.8;;;;;2;;;;;#DIV/0!;#DIV/0!;#DIV/0!;0;0;;;;;;;;;;;;;3;3,5;3;2;4;4;3;3;4;4;5;1;2;2;2;Italian
10409016922;221993133;2018-12-10 17:37:46;2018-12-10 17:40:45;37.159.79.204;;;;;1;1;2;3;;4;3,666666667;3;3;1;3;3;4;4;3;3;3;1;5;4;4;2;#DIV/0!;#DIV/0!;0;;;;;;1;1;3;2;5;4;3;Italian
10408816879;221993133;2018-12-10 16:33:02;2018-12-10 16:38:02;37.227.209.251;;;;;1;1;2;;;4,333333333;4,666666667;2,5;3;1;4;5;4;5;3;3;1;1;4;5;2;4;#DIV/0!;#DIV/0!;0;;;;;;3;2;4;2;5;4;3;Italian
10408761677;221993133;2018-12-10 16:14:27;2018-12-10 16:14:44;79.46.112.3;;;;;1;;;;;#DIV/0!;#DIV/0!;#DIV/0!;0;0;;;;;;;;;;;;;#DIV/0!;#DIV/0!;0;;;;;;;;;;;;;Italian
10408704192;221993133;2018-12-10 15:54:30;2018-12-10 15:58:33;78.4.97.54;;;;;1;1;2;3;;4;3,666666667;1,5;1;1;5;2;5;2;1;1;1;1;5;4;3;1;#DIV/0!;#DIV/0!;0;;;;;;1;1;4;2;5;4;10;Italian
10408636102;221993133;2018-12-10 15:30:47;2018-12-10 15:33:27;97.91.111.98;;;;;1;1;2;;;5;3,666666667;2;1;1;5;4;4;5;1;3;1;1;5;3;1;3;#DIV/0!;#DIV/0!;0;;;;;;2;2;4;1;2;4;6;Italian
10408587592;221993133;2018-12-10 15:13:27;2018-12-10 15:16:03;176.200.162.7;;;;;2;;;;;#DIV/0!;#DIV/0!;#DIV/0!;0;0;;;;;;;;;;;;;3;1,5;1;4;2;2;1;1;4;1;3;1;2;2;3;Italian
10408571286;221993133;2018-12-10 15:07:29;2018-12-10 15:10:57;37.159.84.99;;;;;1;;;3;;4;4;3,75;3;3;3;4;4;4;3;3;4;3;5;4;4;4;#DIV/0!;#DIV/0!;0;;;;;;1;2;3;1;2;3;6;Italian
10408542382;221993133;2018-12-10 14:56:52;2018-12-10 14:59:44;37.160.63.227;;;;;1;;2;;;4;4;2,5;3;3;4;4;4;4;3;4;2;3;4;4;1;3;#DIV/0!;#DIV/0!;0;;;;;;3;1;2;1;2;4;6;Italian
10408517188;221993133;2018-12-10 14:46:49;2018-12-10 14:49:42;79.21.204.77;;;;;1;1;2;;;3,666666667;4;3,75;1;2;4;4;3;3;1;4;4;2;4;5;3;4;#DIV/0!;#DIV/0!;0;;;;;;3;2;2;1;2;3;6;Italian
10408488006;221993133;2018-12-10 14:35:04;2018-12-10 14:37:30;79.20.158.3;;;;;1;;2;;;3,333333333;4,666666667;3,25;1;1;2;4;5;4;1;4;1;1;4;5;4;4;#DIV/0!;#DIV/0!;0;;;;;;4;2;2;2;2;2;6;Italian
10408470230;221993133;2018-12-10 14:27:20;2018-12-10 14:33:20;176.200.162.15;;;;;1;;2;;;4;4,333333333;2,75;3;1;4;4;5;4;3;3;2;1;4;4;3;3;#DIV/0!;#DIV/0!;0;;;;;;1;2;3;1;5;2;3;Italian
10408469972;221993133;2018-12-10 14:27:06;2018-12-10 14:30:51;5.169.154.124;;;;;1;;2;;;3,666666667;4;3;3;1;4;4;4;3;3;3;3;1;4;4;3;3;#DIV/0!;#DIV/0!;0;;;;;;;;;;;;;Italian
10408448517;221993133;2018-12-10 14:18:23;2018-12-10 14:18:31;93.34.53.133;;;;;2;;;;;#DIV/0!;#DIV/0!;#DIV/0!;0;0;;;;;;;;;;;;;#DIV/0!;#DIV/0!;0;;;;;;;;;;;;;Italian
10408440618;221993133;2018-12-10 14:14:34;2018-12-10 14:16:43;5.90.65.146;;;;;2;;;;;#DIV/0!;#DIV/0!;#DIV/0!;0;0;;;;;;;;;;;;;3,5;3,5;1;3;4;5;2;1;4;1;3;1;2;3;6;Italian
10408419480;221993133;2018-12-10 14:04:49;2018-12-10 14:07:41;5.90.86.115;;;;;2;;;;;#DIV/0!;#DIV/0!;#DIV/0!;0;0;;;;;;;;;;;;;4;4,5;1;4;4;5;4;1;2;1;4;1;5;2;2;Italian
10408406770;221993133;2018-12-10 13:58:54;2018-12-10 14:03:09;151.38.219.7;;;;;1;;2;;;3;3,333333333;3;3;1;1;1;5;4;3;4;3;1;4;4;2;3;#DIV/0!;#DIV/0!;0;;;;;;3;2;2;2;5;2;8;Italian
10408404419;221993133;2018-12-10 13:57:35;2018-12-10 14:00:10;151.82.147.224;;;;;1;;2;;;4;4;3,5;4;1;3;4;5;4;4;5;3;1;5;3;3;3;#DIV/0!;#DIV/0!;0;;;;;;;;;;;;;Italian
10408395854;221993133;2018-12-10 13:53:15;2018-12-10 13:56:41;93.36.21.151;;;;;1;;2;;;2,333333333;3,333333333;3,75;1;1;1;3;4;2;1;5;2;1;4;3;4;4;#DIV/0!;#DIV/0!;0;;;;;;4;1;4;2;4;2;2;Italian
10408384266;221993133;2018-12-10 13:47:12;2018-12-10 13:53:27;2.234.121.249;;;;;1;1;2;;;3,666666667;5;2,5;3;1;4;5;5;2;3;4;2;1;5;5;1;3;#DIV/0!;#DIV/0!;0;;;;;;2;3;3;2;5;2;7;Italian
10408382022;221993133;2018-12-10 13:46:14;2018-12-10 13:49:22;131.175.147.135;;;;;2;;;;;#DIV/0!;#DIV/0!;#DIV/0!;0;0;;;;;;;;;;;;;2,5;4;2;2;3;4;4;2;3;1;2;2;2;3;6;Italian
10408372300;221993133;2018-12-10 13:41:00;2018-12-10 13:42:47;93.43.202.188;;;;;2;;;;;#DIV/0!;#DIV/0!;#DIV/0!;0;0;;;;;;;;;;;;;2;2,5;2;1;3;4;1;2;2;2;3;1;2;4;6;Italian
10408361907;221993133;2018-12-10 13:35:20;2018-12-10 14:20:16;5.90.40.27;;;;;1;;2;;;4,333333333;3,666666667;2,5;1;3;4;4;4;4;1;1;2;3;5;3;3;4;#DIV/0!;#DIV/0!;0;;;;;;2;2;3;2;5;3;10;Italian
10408344374;221993133;2018-12-10 13:25:57;2018-12-10 13:28:39;37.116.37.179;;;;;1;1;2;;;4;2,666666667;2,75;1;1;4;3;3;3;1;3;3;1;5;2;1;4;#DIV/0!;#DIV/0!;0;;;;;;4;1;2;1;2;2;6;Italian
10408343299;221993133;2018-12-10 13:25:04;2018-12-10 13:27:55;2.233.187.248;;;;;1;;2;;;4,333333333;4;3,25;3;3;4;4;4;4;3;3;3;3;5;4;3;4;#DIV/0!;#DIV/0!;0;;;;;;1;1;3;1;2;3;6;Italian
10408342025;221993133;2018-12-10 13:24:11;2018-12-10 13:32:51;151.82.107.184;;;;;1;1;2;3;;3,666666667;4,666666667;2,25;1;1;4;4;5;2;1;1;1;1;5;5;5;2;#DIV/0!;#DIV/0!;0;;;;;;1;2;2;1;5;2;3;Italian
10408336840;221993133;2018-12-10 13:22:03;2018-12-10 13:24:20;5.90.53.72;;;;;1;;2;;;4;4,333333333;2;3;1;4;3;5;5;3;1;1;1;3;5;1;5;#DIV/0!;#DIV/0!;0;;;;;;1;2;3;1;3;2;2;Italian
10408336401;221993133;2018-12-10 13:21:21;2018-12-10 13:28:01;79.58.245.123;;;;;1;;;;;#DIV/0!;#DIV/0!;#DIV/0!;0;0;;;;;;;;;;;;;#DIV/0!;#DIV/0!;0;;;;;;;;;;;;;Italian
10408334688;221993133;2018-12-10 13:20:55;2018-12-10 13:22:44;5.90.35.119;;;;;2;;;;;#DIV/0!;#DIV/0!;#DIV/0!;0;0;;;;;;;;;;;;;1;3;3;1;1;5;1;3;4;1;1;1;3;2;2;Italian
10408333757;221993133;2018-12-10 13:20:14;2018-12-10 13:24:40;87.13.18.121;;;;;1;;2;;;4;3;2,25;1;1;4;2;5;4;1;3;1;1;4;2;2;3;#DIV/0!;#DIV/0!;0;;;;;;4;1;1;1;2;3;6;Italian
10408326062;221993133;2018-12-10 13:15:56;2018-12-10 13:18:38;131.175.147.132;;;;;2;;;;;#DIV/0!;#DIV/0!;#DIV/0!;0;0;;;;;;;;;;;;;3;1,5;1;4;2;2;1;1;2;2;3;1;2;3;6;Italian
10408298974;221993133;2018-12-10 13:01:22;2018-12-10 13:04:37;82.106.65.145;;;;;1;1;2;;;4,666666667;4,666666667;3,25;3;4;4;5;5;5;3;3;3;4;5;4;3;4;#DIV/0!;#DIV/0!;0;;;;;;3;2;4;2;5;2;10;Italian
10408225975;221993133;2018-12-10 12:19:07;2018-12-10 12:22:13;151.64.35.87;;;;;1;1;2;;;4,333333333;4;2,25;2;1;5;5;4;4;2;1;2;1;4;3;3;3;#DIV/0!;#DIV/0!;0;;;;;;1;2;4;2;5;4;2;Italian
10408163310;221993133;2018-12-10 11:39:57;2018-12-10 11:45:31;79.37.106.102;;;;;1;;2;3;;3;2,666666667;3,5;2;1;4;1;3;1;2;3;3;1;4;4;5;3;#DIV/0!;#DIV/0!;0;;;;;;4;2;4;1;6;4;8;Italian
10408113142;221993133;2018-12-10 11:09:22;2018-12-10 11:16:25;5.157.115.21;;;;;1;;2;;;4;3,666666667;3,25;1;1;4;4;4;4;1;3;4;1;4;3;2;4;#DIV/0!;#DIV/0!;0;;;;;;2;2;4;1;5;4;1;Italian
10408052098;221993133;2018-12-10 10:32:32;2018-12-10 10:35:02;93.37.179.127;;;;;1;;2;3;;5;5;3,25;2;1;5;5;5;5;2;3;1;1;5;5;5;4;#DIV/0!;#DIV/0!;0;;;;;;3;2;3;1;2;2;6;Italian
10408044784;221993133;2018-12-10 10:27:56;2018-12-10 10:29:42;37.160.113.197;;;;;2;;;;;#DIV/0!;#DIV/0!;#DIV/0!;0;0;;;;;;;;;;;;;3;3;2;2;4;4;2;2;3;1;3;1;2;3;6;Italian
10408042279;221993133;2018-12-10 10:25:59;2018-12-10 10:31:02;5.170.223.212;;;;;1;;2;;;4;4,666666667;4;3;2;4;4;5;4;3;3;4;2;4;5;5;4;#DIV/0!;#DIV/0!;0;;;;;;3;1;3;1;5;2;2;Italian
10408040492;221993133;2018-12-10 10:24:58;2018-12-10 10:27:20;95.237.147.185;;;;;1;1;2;;;3,666666667;5;1,25;1;1;4;5;5;2;1;1;1;1;5;5;1;2;#DIV/0!;#DIV/0!;0;;;;;;2;2;5;2;2;4;2;Italian
10408009602;221993133;2018-12-10 10:03:45;2018-12-10 10:07:38;5.90.28.207;;;;;1;1;2;;;3,666666667;3,666666667;2,5;2;2;4;3;4;3;2;3;2;2;4;4;1;4;#DIV/0!;#DIV/0!;0;;;;;;2;2;3;2;2;3;6;Italian
10408007389;221993133;2018-12-10 10:02:14;2018-12-10 10:05:42;93.36.109.102;;;;;2;;;;;#DIV/0!;#DIV/0!;#DIV/0!;0;0;;;;;;;;;;;;;3;3;3;3;3;3;3;3;2;2;5;2;5;2;2;Italian
10408001178;221993133;2018-12-10 9:57:07;2018-12-10 10:00:52;217.58.207.217;;;;;1;;2;;;3,333333333;4;2,75;3;1;2;3;4;4;3;3;1;1;4;5;3;4;#DIV/0!;#DIV/0!;0;;;;;;;;;;;;;Italian
10407980686;221993133;2018-12-10 9:43:55;2018-12-10 9:46:50;37.119.106.37;;;;;1;;2;;;5;5;3,25;3;1;5;5;5;5;3;3;3;1;5;5;5;2;#DIV/0!;#DIV/0!;0;;;;;;;;;;;;;Italian
10407969202;221993133;2018-12-10 9:35:12;2018-12-10 9:39:08;93.147.61.181;;;;;1;;2;;;4,333333333;4,333333333;3,25;1;1;4;4;4;5;1;2;4;1;4;5;5;2;#DIV/0!;#DIV/0!;0;;;;;;2;3;5;1;4;4;10;Italian
10407965043;221993133;2018-12-10 9:32:01;2018-12-10 9:34:21;131.175.147.133;;;;;2;;;;;#DIV/0!;#DIV/0!;#DIV/0!;0;0;;;;;;;;;;;;;3,5;2;2;3;4;3;1;2;3;1;2;2;2;3;6;Italian
10407941993;221993133;2018-12-10 9:14:25;2018-12-10 9:15:39;5.90.212.125;;;;;2;;;;;#DIV/0!;#DIV/0!;#DIV/0!;0;0;;;;;;;;;;;;;3,5;2,5;1;4;3;3;2;1;1;1;4;1;2;3;6;Italian
10407926246;221993133;2018-12-10 9:00:45;2018-12-10 9:01:35;151.54.127.2;;;;;1;;;;;#DIV/0!;#DIV/0!;#DIV/0!;0;0;;;;;;;;;;;;;#DIV/0!;#DIV/0!;0;;;;;;;;;;;;;Italian
10407920449;221993133;2018-12-10 8:56:19;2018-12-10 9:01:18;185.82.168.11;;;;;1;;2;;;4,333333333;1,666666667;1;1;1;5;3;1;3;1;1;1;1;5;1;1;1;#DIV/0!;#DIV/0!;0;;;;;;2;1;2;1;5;4;3;Italian
10407913463;221993133;2018-12-10 8:50:24;2018-12-10 8:53:27;151.54.146.161;;;;;1;;2;3;;4,333333333;4;2,75;2;1;4;4;3;4;2;1;4;1;5;5;5;1;#DIV/0!;#DIV/0!;0;;;;;;3;1;1;1;5;4;9;Italian
10407905076;221993133;2018-12-10 8:43:08;2018-12-10 8:48:45;5.168.129.172;;;;;1;;2;3;;4;4,333333333;3,75;3;1;4;4;5;4;3;4;4;1;4;4;4;3;#DIV/0!;#DIV/0!;0;;;;;;4;1;3;2;5;4;2;Italian
10407904380;221993133;2018-12-10 8:42:40;2018-12-10 8:44:33;91.252.106.143;;;;;1;;2;;;3,666666667;4,333333333;1,75;3;1;4;4;5;4;3;1;1;1;3;4;1;4;#DIV/0!;#DIV/0!;0;;;;;;;;;;;;;Italian
10407904290;221993133;2018-12-10 8:42:35;2018-12-10 8:44:59;151.53.14.149;;;;;1;;2;;;3,666666667;4;3,75;3;3;4;4;4;4;3;4;4;3;3;4;3;4;#DIV/0!;#DIV/0!;0;;;;;;4;1;3;2;2;3;2;Italian
10407881984;221993133;2018-12-10 8:22:33;2018-12-10 8:29:55;37.159.99.68;;;;;2;;;;;#DIV/0!;#DIV/0!;#DIV/0!;0;0;;;;;;;;;;;;;3,5;2,5;4;3;4;3;2;4;;;;;;;;Italian
10407872589;221993133;2018-12-10 8:14:41;2018-12-10 8:21:32;5.90.242.241;;;;;1;;2;3;;4,666666667;2;3;1;1;5;1;1;4;1;1;1;1;5;4;5;5;#DIV/0!;#DIV/0!;0;;;;;;2;2;2;1;5;4;10;Italian
10407837478;221993133;2018-12-10 7:39:11;2018-12-10 7:43:17;37.119.238.141;;;;;1;;;;4;4;4,333333333;3,5;3;1;4;4;5;5;3;3;2;1;3;4;4;5;#DIV/0!;#DIV/0!;0;;;;;;2;2;3;1;5;2;10;Italian
10407798528;221993133;2018-12-10 6:57:10;2018-12-10 6:58:51;95.74.73.228;;;;;2;;;;;#DIV/0!;#DIV/0!;#DIV/0!;0;0;;;;;;;;;;;;;5;3;1;5;5;4;2;1;3;1;3;2;2;2;6;Italian
10407762216;221993133;2018-12-10 6:16:06;2018-12-10 6:19:34;91.253.207.250;;;;;1;;;;4;3,666666667;3,666666667;2;2;3;4;4;4;3;2;1;1;3;4;3;3;3;#DIV/0!;#DIV/0!;0;;;;;;2;3;4;1;4;2;2;Italian
10407619691;221993133;2018-12-10 3:40:14;2018-12-10 3:43:23;82.52.107.163;;;;;1;;2;3;;5;5;5;3;5;5;5;5;5;3;5;5;5;5;5;5;5;#DIV/0!;#DIV/0!;0;;;;;;1;3;3;1;5;2;2;Italian
10407425092;221993133;2018-12-10 0:09:19;2018-12-10 0:13:05;151.18.95.156;;;;;2;;;;;#DIV/0!;#DIV/0!;#DIV/0!;0;0;;;;;;;;;;;;;3,5;3;3;3;4;3;3;3;4;1;1;2;2;4;9;Italian
10407408359;221993133;2018-12-09 23:50:23;2018-12-09 23:54:10;2.225.220.243;;;;;1;1;2;;;4,333333333;4,666666667;3,75;1;1;5;5;5;3;1;5;4;1;5;4;3;3;#DIV/0!;#DIV/0!;0;;;;;;2;2;4;2;2;2;6;Italian
10407387068;221993133;2018-12-09 23:26:20;2018-12-09 23:31:00;83.41.202.10;;;;;1;;2;3;;3;3,666666667;3;1;3;3;3;3;3;1;1;3;3;3;5;5;3;#DIV/0!;#DIV/0!;0;;;;;;4;3;5;1;5;2;11;Italian
10407382239;221993133;2018-12-09 23:21:27;2018-12-09 23:25:01;37.162.41.243;;;;;1;;;3;;4,333333333;4;2,5;4;1;4;4;4;4;4;1;1;1;5;4;4;4;#DIV/0!;#DIV/0!;0;;;;;;3;2;3;2;2;2;7;Italian
10407378717;221993133;2018-12-09 23:17:32;2018-12-09 23:21:55;91.252.64.143;;;;;1;;;3;;3,333333333;3,333333333;1,5;1;1;4;3;4;3;1;1;1;1;3;3;3;1;#DIV/0!;#DIV/0!;0;;;;;;1;2;3;1;5;2;2;Italian
10407378240;221993133;2018-12-09 23:16:27;2018-12-09 23:23:22;5.168.81.205;;;;;1;;;;4;5;4,333333333;4,5;3;3;5;5;5;5;3;5;5;3;5;3;3;5;#DIV/0!;#DIV/0!;0;;;;;;4;1;1;1;5;2;2;Italian
10407370701;221993133;2018-12-09 23:08:50;2018-12-09 23:12:35;79.17.139.62;;;;;1;1;2;;;4;4;4;4;3;4;4;4;3;4;4;4;3;5;4;4;4;#DIV/0!;#DIV/0!;0;;;;;;2;3;4;2;2;3;6;Italian
10407365467;221993133;2018-12-09 23:02:28;2018-12-09 23:09:06;37.162.6.137;;;;;1;;;;4;4;3,666666667;3;1;1;4;4;4;4;1;5;1;1;4;3;3;3;#DIV/0!;#DIV/0!;0;;;;;;4;2;2;1;5;2;2;Italian
10407356032;221993133;2018-12-09 22:52:27;2018-12-09 22:56:20;79.46.191.144;;;;;1;;2;;4;4,333333333;4;3,5;1;1;4;5;4;4;1;4;3;1;5;3;3;4;#DIV/0!;#DIV/0!;0;;;;;;3;2;3;2;5;5;10;Italian
10407352659;221993133;2018-12-09 22:48:13;2018-12-09 22:54:46;94.161.90.29;;;;;1;;;;4;4;1,666666667;1,75;1;2;3;1;2;4;1;4;1;2;5;2;1;1;#DIV/0!;#DIV/0!;0;;;;;;3;2;2;1;5;2;8;Italian
10407352602;221993133;2018-12-09 22:47:31;2018-12-09 22:49:04;93.37.178.203;;;;;1;;;;;#DIV/0!;#DIV/0!;#DIV/0!;0;0;;;;;;;;;;;;;#DIV/0!;#DIV/0!;0;;;;;;;;;;;;;Italian
10407330319;221993133;2018-12-09 22:24:15;2018-12-09 22:30:00;5.168.73.18;;;;;1;;;3;;4;4;3,75;1;1;4;4;4;4;1;4;3;1;4;4;4;4;#DIV/0!;#DIV/0!;0;;;;;;2;3;5;1;5;4;11;Italian
10407322680;221993133;2018-12-09 22:16:13;2018-12-09 22:16:44;151.48.183.213;;;;;2;;;;;#DIV/0!;#DIV/0!;#DIV/0!;0;0;;;;;;;;;;;;;#DIV/0!;#DIV/0!;0;;;;;;;;;;;;;Italian
10407311782;221993133;2018-12-09 22:04:38;2018-12-09 22:10:09;79.18.58.211;;;;;1;1;2;;;3,333333333;3;3,5;1;1;4;3;3;2;1;4;3;1;4;3;4;3;#DIV/0!;#DIV/0!;0;;;;;;4;2;3;1;5;4;10;Italian
10407307621;221993133;2018-12-09 21:59:58;2018-12-09 22:01:34;5.90.38.245;;;;;2;;;;;#DIV/0!;#DIV/0!;#DIV/0!;0;0;;;;;;;;;;;;;2,5;2,5;2;1;4;4;1;2;4;3;5;2;2;2;6;Italian
10407304560;221993133;2018-12-09 21:56:27;2018-12-09 21:58:32;91.253.187.3;;;;;2;;;;;#DIV/0!;#DIV/0!;#DIV/0!;0;0;;;;;;;;;;;;;4,5;1,5;3;5;4;2;1;3;4;2;3;2;2;4;3;Italian
10407294517;221993133;2018-12-09 21:44:36;2018-12-09 21:48:31;93.37.81.241;;;;;1;;2;;;4,666666667;4;3,5;1;1;5;5;4;4;1;3;4;1;5;3;3;4;#DIV/0!;#DIV/0!;0;;;;;;2;2;5;2;2;2;6;Italian
10407291833;221993133;2018-12-09 21:41:45;2018-12-09 21:43:55;151.64.129.231;;;;;1;;2;;;4,333333333;4,333333333;1,5;1;1;5;5;4;4;1;1;1;1;4;4;1;3;#DIV/0!;#DIV/0!;0;;;;;;3;2;4;;;;;Italian
10407289462;221993133;2018-12-09 21:38:58;2018-12-09 21:41:54;151.43.66.40;;;;;2;;;;;#DIV/0!;#DIV/0!;#DIV/0!;0;0;;;;;;;;;;;;;4;3,5;3;4;4;3;4;3;3;2;4;1;5;2;5;Italian
10407286016;221993133;2018-12-09 21:35:13;2018-12-09 21:37:16;79.50.144.105;;;;;2;;;;;#DIV/0!;#DIV/0!;#DIV/0!;0;0;;;;;;;;;;;;;4;3;1;5;3;4;2;1;1;1;5;2;2;2;6;Italian
10407281365;221993133;2018-12-09 21:30:13;2018-12-09 21:32:38;93.45.160.209;;;;;1;;2;;;5;5;2,75;1;1;5;5;5;5;1;1;1;1;5;5;5;4;#DIV/0!;#DIV/0!;0;;;;;;3;1;5;1;5;4;1;Italian
10407280923;221993133;2018-12-09 21:29:26;2018-12-09 21:33:01;93.45.160.209;;;;;1;;;;4;4;4,666666667;2,25;1;3;5;5;5;3;1;2;1;3;4;4;1;5;#DIV/0!;#DIV/0!;0;;;;;;2;3;4;2;2;3;6;Italian
10407280311;221993133;2018-12-09 21:29:01;2018-12-09 21:31:58;93.45.160.209;;;;;1;1;;;;5;4,666666667;3;3;3;5;5;5;5;3;4;1;3;5;4;4;3;#DIV/0!;#DIV/0!;0;;;;;;2;2;3;2;5;4;1;Italian
10407278212;221993133;2018-12-09 21:26:32;2018-12-09 21:31:06;93.40.187.117;;;;;1;;2;;;3,666666667;3,666666667;3,25;1;1;4;3;5;3;1;4;3;1;4;3;3;3;#DIV/0!;#DIV/0!;0;;;;;;2;3;4;1;2;2;6;Italian
10407274776;221993133;2018-12-09 21:22:10;2018-12-09 21:23:16;196.61.75.25;;;;;1;;;;;#DIV/0!;#DIV/0!;#DIV/0!;0;0;;;;;;;;;;;;;#DIV/0!;#DIV/0!;0;;;;;;;;;;;;;Italian
10407274081;221993133;2018-12-09 21:21:22;2018-12-09 21:30:46;151.25.58.81;;;;;2;;;;;#DIV/0!;#DIV/0!;#DIV/0!;0;0;;;;;;;;;;;;;3;3;2;3;3;4;2;2;2;2;2;1;5;2;8;Italian
10407265902;221993133;2018-12-09 21:12:42;2018-12-09 21:19:38;85.33.210.106;;;;;1;;2;;;4,333333333;3,666666667;2,5;1;3;5;5;5;5;1;1;3;3;3;1;5;1;#DIV/0!;#DIV/0!;0;;;;;;2;1;2;1;5;4;8;Italian
10407265067;221993133;2018-12-09 21:12:22;2018-12-09 21:16:28;37.227.90.119;;;;;1;;;;4;4;4,666666667;3,5;3;3;4;5;5;5;3;4;3;3;3;4;4;3;#DIV/0!;#DIV/0!;0;;;;;;3;1;3;1;5;2;2;Italian
10407263880;221993133;2018-12-09 21:10:45;2018-12-09 21:16:10;93.41.18.251;;;;;1;;2;;;3;2,666666667;3,75;1;3;3;3;3;3;1;5;5;3;3;2;2;3;#DIV/0!;#DIV/0!;0;;;;;;4;1;3;2;5;4;10;Italian
10407263217;221993133;2018-12-09 21:09:48;2018-12-09 21:14:19;93.37.176.224;;;;;1;;2;;;4;3,666666667;1,5;1;1;4;4;3;3;1;1;1;1;5;4;1;3;#DIV/0!;#DIV/0!;0;;;;;;2;2;5;1;5;3;10;Italian
10407250709;221993133;2018-12-09 20:55:17;2018-12-09 20:59:29;91.252.18.231;;;;;1;;2;3;;4;3,333333333;3;3;2;3;3;4;5;3;3;3;2;4;3;3;3;#DIV/0!;#DIV/0!;0;;;;;;2;2;4;2;5;1;7;Italian
10407232584;221993133;2018-12-09 20:33:00;2018-12-09 20:37:11;93.56.164.28;;;;;1;;;;4;4,666666667;5;3;2;3;5;5;5;4;2;5;2;3;5;5;3;2;#DIV/0!;#DIV/0!;0;;;;;;3;1;3;2;5;4;10;Italian
10407220689;221993133;2018-12-09 20:19:01;2018-12-09 20:23:22;79.21.167.193;;;;;1;1;2;3;;3,333333333;4;4;3;1;1;4;4;4;3;4;4;1;5;4;4;4;#DIV/0!;#DIV/0!;0;;;;;;1;1;4;2;5;2;7;Italian
10407214961;221993133;2018-12-09 20:12:20;2018-12-09 20:14:36;93.35.147.229;;;;;1;;;;4;3,666666667;3,666666667;1,5;2;1;3;5;5;3;2;1;1;1;5;1;1;3;#DIV/0!;#DIV/0!;0;;;;;;3;1;1;1;2;3;11;Italian
10407205468;221993133;2018-12-09 20:00:47;2018-12-09 20:04:31;93.33.61.21;;;;;1;1;2;3;;4,666666667;4;3,75;1;1;4;4;4;5;1;4;4;1;5;4;4;3;#DIV/0!;#DIV/0!;0;;;;;;2;2;3;2;5;4;10;Italian
10407202570;221993133;2018-12-09 19:56:58;2018-12-09 20:01:40;93.66.10.210;;;;;1;;2;;;4,333333333;4;3;1;2;4;5;4;4;1;3;3;2;5;3;2;4;#DIV/0!;#DIV/0!;0;;;;;;2;2;4;1;5;4;8;Italian
10407200295;221993133;2018-12-09 19:54:11;2018-12-09 19:57:11;93.66.10.210;;;;;1;;2;;;3;2,333333333;1;3;1;1;2;4;4;3;1;1;1;4;1;1;1;#DIV/0!;#DIV/0!;0;;;;;;4;1;3;2;5;3;2;Italian
10407197217;221993133;2018-12-09 19:50:42;2018-12-09 19:55:28;62.19.56.126;;;;;1;1;2;;;4,333333333;4,333333333;2,75;1;1;4;4;4;4;1;1;2;1;5;5;4;4;#DIV/0!;#DIV/0!;0;;;;;;1;1;2;2;5;4;10;Italian
10407194078;221993133;2018-12-09 19:47:08;2018-12-09 19:50:27;62.19.44.85;;;;;1;;2;;;4,333333333;3;3,25;1;1;4;1;4;4;1;3;3;1;5;4;4;3;#DIV/0!;#DIV/0!;0;;;;;;3;1;4;2;5;4;10;Italian
10407188634;221993133;2018-12-09 19:40:29;2018-12-09 19:44:41;91.252.100.207;;;;;1;;2;;;3,333333333;3,666666667;3,25;3;1;4;4;4;3;3;3;4;1;3;3;3;3;#DIV/0!;#DIV/0!;0;;;;;;3;1;1;2;5;2;2;Italian
10407186518;221993133;2018-12-09 19:38:22;2018-12-09 19:42:19;151.36.42.7;;;;;1;;2;3;;2,666666667;2,666666667;2,25;4;1;3;2;3;1;4;3;3;1;4;3;2;1;#DIV/0!;#DIV/0!;0;;;;;;4;2;2;3;5;2;10;Italian
10407181577;221993133;2018-12-09 19:32:29;2018-12-09 19:36:20;5.169.42.190;;;;;1;;2;;;4;4,666666667;1,5;1;1;4;4;5;3;1;1;1;1;5;5;2;2;#DIV/0!;#DIV/0!;0;;;;;;1;2;5;1;2;4;1;Italian
10407172235;221993133;2018-12-09 19:21:13;2018-12-09 19:26:21;93.32.75.139;;;;;1;;2;;;3,333333333;3;3,75;1;3;3;1;4;3;1;5;3;3;4;4;4;3;#DIV/0!;#DIV/0!;0;;;;;;;;;;;;;Italian
10407164074;221993133;2018-12-09 19:11:30;2018-12-09 19:12:36;158.162.211.142;;;;;1;;2;;;2,666666667;2,666666667;3,5;4;2;2;1;3;3;4;5;4;2;3;4;2;3;#DIV/0!;#DIV/0!;0;;;;;;3;2;5;1;1;2;4;Italian
10407163985;221993133;2018-12-09 19:11:11;2018-12-09 19:14:36;151.36.92.193;;;;;1;1;2;3;;3,333333333;3,333333333;2,5;3;3;4;4;4;4;3;1;4;3;2;2;2;3;#DIV/0!;#DIV/0!;0;;;;;;2;1;2;;;;;Italian
10407161836;221993133;2018-12-09 19:07:26;2018-12-09 19:20:12;91.252.21.15;;;;;1;1;2;3;4;4;3,666666667;1,75;1;1;5;3;4;4;1;1;3;1;3;4;1;2;#DIV/0!;#DIV/0!;0;;;;;;2;2;4;2;5;5;3;Italian
10407160797;221993133;2018-12-09 19:07:20;2018-12-09 19:11:23;151.36.127.44;;;;;1;;2;3;;4,666666667;5;3;4;4;5;5;5;5;4;3;3;4;4;5;3;3;#DIV/0!;#DIV/0!;0;;;;;;3;2;4;2;6;1;8;Italian
10407156841;221993133;2018-12-09 19:02:21;2018-12-09 19:02:56;93.36.16.16;;;;;1;;;;;#DIV/0!;#DIV/0!;#DIV/0!;0;0;;;;;;;;;;;;;#DIV/0!;#DIV/0!;0;;;;;;;;;;;;;Italian
10407156204;221993133;2018-12-09 19:01:54;2018-12-09 19:05:04;5.90.31.178;;;;;1;;2;;;4;3,666666667;4,75;4;4;2;2;5;5;4;5;5;4;5;4;5;4;#DIV/0!;#DIV/0!;0;;;;;;2;3;3;2;5;2;10;Italian
10407154546;221993133;2018-12-09 18:59:46;2018-12-09 19:02:42;79.40.137.77;;;;;1;;2;;;4;4;1,5;1;1;4;4;4;4;1;1;1;1;4;4;1;3;#DIV/0!;#DIV/0!;0;;;;;;4;1;2;2;5;4;8;Italian
10407153392;221993133;2018-12-09 18:58:24;2018-12-09 19:02:41;158.148.187.218;;;;;1;;2;3;;4,333333333;3,333333333;1,5;1;1;4;3;4;4;1;1;1;1;5;3;3;1;#DIV/0!;#DIV/0!;0;;;;;;1;2;3;2;5;4;2;Italian
10407146239;221993133;2018-12-09 18:49:43;2018-12-09 18:51:35;91.252.228.207;;;;;2;;;;;#DIV/0!;#DIV/0!;#DIV/0!;0;0;;;;;;;;;;;;;4,5;3;1;5;4;5;1;1;4;1;1;;;;;Italian
10407136531;221993133;2018-12-09 18:37:40;2018-12-09 18:44:05;151.64.125.89;;;;;1;;2;;4;4,666666667;5;4;1;3;5;5;5;4;1;5;3;3;5;5;5;3;#DIV/0!;#DIV/0!;0;;;;;;3;2;4;1;5;2;2;Italian
10407134566;221993133;2018-12-09 18:35:25;2018-12-09 18:40:15;151.82.101.146;;;;;1;;2;;;3;2,666666667;2,5;1;1;3;2;5;1;1;5;3;1;5;1;1;1;#DIV/0!;#DIV/0!;0;;;;;;;;;;;;;Italian
10407120493;221993133;2018-12-09 18:18:43;2018-12-09 18:21:41;176.200.232.174;;;;;1;;2;;;4,666666667;3,666666667;2;1;1;4;4;5;5;1;2;1;1;5;2;1;4;#DIV/0!;#DIV/0!;0;;;;;;2;1;3;2;4;4;10;Italian
10407114248;221993133;2018-12-09 18:11:02;2018-12-09 18:16:35;5.90.190.134;;;;;1;;2;3;;4,333333333;4,333333333;2,25;1;3;4;5;5;5;1;2;3;3;4;3;1;3;#DIV/0!;#DIV/0!;0;;;;;;2;2;4;2;5;4;10;Italian
10407113336;221993133;2018-12-09 18:10:03;2018-12-09 18:12:32;95.235.219.207;;;;;1;;2;;;3,666666667;3,333333333;2,5;3;2;4;4;3;3;3;2;1;2;4;3;4;3;#DIV/0!;#DIV/0!;0;;;;;;3;1;1;2;5;4;10;Italian
10407108374;221993133;2018-12-09 18:04:25;2018-12-09 18:12:42;93.40.187.117;;;;;1;;2;;4;4,666666667;4,333333333;3,25;4;1;5;4;5;4;4;5;4;1;5;4;3;1;#DIV/0!;#DIV/0!;0;;;;;;2;2;2;2;5;3;10;Italian
10407107769;221993133;2018-12-09 18:03:42;2018-12-09 18:08:16;79.17.142.31;;;;;1;;2;3;;4;4,666666667;4,5;4;4;4;4;5;4;4;4;4;4;4;5;5;5;#DIV/0!;#DIV/0!;0;;;;;;2;2;4;2;5;2;3;Italian
10407105871;221993133;2018-12-09 18:00:33;2018-12-09 18:06:13;176.200.5.76;;;;;1;;2;3;;3,666666667;3,666666667;3,5;1;1;3;4;4;4;1;3;3;1;4;3;4;4;#DIV/0!;#DIV/0!;0;;;;;;2;2;2;1;5;2;2;Italian
10407104871;221993133;2018-12-09 18:00:31;2018-12-09 18:02:57;37.227.174.239;;;;;1;1;;;;4;3,666666667;2,5;2;1;4;4;4;4;2;2;2;1;4;3;3;3;#DIV/0!;#DIV/0!;0;;;;;;1;1;3;1;4;2;2;Italian
10407102610;221993133;2018-12-09 17:57:49;2018-12-09 17:59:50;5.169.11.247;;;;;1;;2;;;4;4,666666667;3,25;1;1;4;4;5;3;1;4;3;1;5;5;3;3;#DIV/0!;#DIV/0!;0;;;;;;3;2;4;2;2;4;6;Italian
10407092881;221993133;2018-12-09 17:46:22;2018-12-09 17:48:57;93.38.51.39;;;;;2;;;;;#DIV/0!;#DIV/0!;#DIV/0!;0;0;;;;;;;;;;;;;2;2,5;4;1;3;4;1;4;2;2;3;1;2;4;6;Italian
10407081223;221993133;2018-12-09 17:32:50;2018-12-09 17:35:43;93.35.245.97;;;;;1;1;2;;4;3,333333333;4,333333333;3;1;1;3;4;5;4;1;2;4;1;3;4;2;4;#DIV/0!;#DIV/0!;0;;;;;;1;3;5;2;2;3;6;Italian
10407076678;221993133;2018-12-09 17:27:33;2018-12-09 17:30:18;151.21.144.29;;;;;1;;2;;;4,333333333;3;1,25;1;3;5;2;3;3;1;1;1;3;5;4;1;2;#DIV/0!;#DIV/0!;0;;;;;;2;2;4;2;3;4;2;Italian
10407067318;221993133;2018-12-09 17:15:50;2018-12-09 17:20:50;93.33.106.5;;;;;1;;2;;;3,666666667;4,666666667;2,5;1;2;3;4;5;4;1;1;1;2;4;5;4;4;#DIV/0!;#DIV/0!;0;;;;;;2;1;3;2;5;3;10;Italian
10407058267;221993133;2018-12-09 17:05:39;2018-12-09 17:05:51;5.88.22.135;;;;;2;;;;;#DIV/0!;#DIV/0!;#DIV/0!;0;0;;;;;;;;;;;;;#DIV/0!;#DIV/0!;0;;;;;;;;;;;;;Italian
10407055404;221993133;2018-12-09 17:02:11;2018-12-09 17:57:49;5.90.213.136;;;;;2;;;;;#DIV/0!;#DIV/0!;#DIV/0!;0;0;;;;;;;;;;;;;3,5;3;1;4;3;2;4;1;1;1;2;1;2;3;6;Italian
10407054888;221993133;2018-12-09 17:01:31;2018-12-09 17:03:14;213.140.17.214;;;;;2;;;;;#DIV/0!;#DIV/0!;#DIV/0!;0;0;;;;;;;;;;;;;2;2,5;2;2;2;3;2;2;1;1;2;1;2;3;6;Italian
10407044843;221993133;2018-12-09 16:48:43;2018-12-09 16:54:09;151.82.2.15;;;;;1;1;2;3;;4,333333333;3,666666667;3,5;1;1;4;3;4;4;1;4;3;1;5;4;4;3;#DIV/0!;#DIV/0!;0;;;;;;2;1;4;2;5;2;2;Italian
10407034023;221993133;2018-12-09 16:35:37;2018-12-09 16:38:51;151.21.144.29;;;;;1;;;;4;4;3;1,25;1;1;4;3;5;4;1;1;1;1;4;1;1;2;#DIV/0!;#DIV/0!;0;;;;;;1;1;4;1;2;3;6;Italian
10407021330;221993133;2018-12-09 16:19:42;2018-12-09 16:22:39;151.48.13.170;;;;;2;;;;;#DIV/0!;#DIV/0!;#DIV/0!;0;0;;;;;;;;;;;;;4,5;3;2;4;5;4;2;2;4;1;2;2;2;4;3;Italian
10407018701;221993133;2018-12-09 16:17:17;2018-12-09 16:20:30;146.241.167.87;;;;;2;;;;;#DIV/0!;#DIV/0!;#DIV/0!;0;0;;;;;;;;;;;;;3,5;3;1;3;4;4;2;1;4;2;3;1;2;2;6;Italian
10407016181;221993133;2018-12-09 16:14:13;2018-12-09 16:18:23;5.86.192.113;;;;;1;;2;;;3,333333333;3,666666667;2,25;2;1;4;4;3;3;2;2;2;1;3;4;1;4;#DIV/0!;#DIV/0!;0;;;;;;4;2;4;1;2;4;9;Italian
10407003875;221993133;2018-12-09 15:59:59;2018-12-09 16:02:38;93.66.10.210;;;;;2;;;;;#DIV/0!;#DIV/0!;#DIV/0!;0;0;;;;;;;;;;;;;2;3;3;2;2;2;4;3;1;1;1;1;3;3;2;Italian
10407003600;221993133;2018-12-09 15:59:34;2018-12-09 15:59:47;37.160.76.120;;;;;2;;;;;#DIV/0!;#DIV/0!;#DIV/0!;0;0;;;;;;;;;;;;;#DIV/0!;#DIV/0!;0;;;;;;;;;;;;;Italian
10407000760;221993133;2018-12-09 15:55:55;2018-12-09 15:59:04;93.36.30.162;;;;;1;1;;;;3,666666667;4,333333333;2,5;1;1;4;4;5;3;1;4;2;1;4;4;1;3;#DIV/0!;#DIV/0!;0;;;;;;1;2;3;2;2;3;6;Italian
10407000672;221993133;2018-12-09 15:55:57;2018-12-09 15:58:06;93.65.49.113;;;;;1;1;;;;4;4;3;2;2;4;4;4;4;2;2;4;2;4;4;2;4;#DIV/0!;#DIV/0!;0;;;;;;1;2;4;2;2;4;6;Italian
10406990470;221993133;2018-12-09 15:43:23;2018-12-09 15:47:58;2.39.54.89;;;;;1;;2;3;;3,666666667;3,666666667;2,75;2;3;4;4;3;5;2;2;3;3;2;4;3;3;#DIV/0!;#DIV/0!;0;;;;;;1;2;4;1;2;3;6;Italian
10406955560;221993133;2018-12-09 14:59:14;2018-12-09 15:01:39;93.45.160.209;;;;;1;;;;4;3,333333333;3,666666667;2,25;1;2;4;2;4;2;1;3;2;2;4;5;2;2;#DIV/0!;#DIV/0!;0;;;;;;2;1;3;1;2;4;6;Italian
10406871961;221993133;2018-12-09 12:58:20;2018-12-09 13:01:47;37.159.79.51;;;;;2;;;;;#DIV/0!;#DIV/0!;#DIV/0!;0;0;;;;;;;;;;;;;1,5;1,5;2;1;2;2;1;2;4;2;2;1;2;3;6;Italian
10406865893;221993133;2018-12-09 12:49:06;2018-12-09 12:51:23;151.64.125.89;;;;;2;;;;;#DIV/0!;#DIV/0!;#DIV/0!;0;0;;;;;;;;;;;;;4;4;1;3;5;5;3;1;4;1;2;1;2;3;6;Italian
10406855364;221993133;2018-12-09 12:32:25;2018-12-09 12:34:46;5.90.213.166;;;;;2;;;;;#DIV/0!;#DIV/0!;#DIV/0!;0;0;;;;;;;;;;;;;3;4;1;1;5;4;4;1;4;1;1;1;2;2;11;Italian
10406854742;221993133;2018-12-09 12:31:31;2018-12-09 12:34:26;151.48.76.15;;;;;1;;2;;4;5;4;4,75;1;4;5;5;5;5;1;5;5;4;5;2;4;5;#DIV/0!;#DIV/0!;0;;;;;;2;3;3;1;4;2;2;Italian
10406847017;221993133;2018-12-09 12:19:10;2018-12-09 12:21:34;82.48.98.54;;;;;1;;2;;;4;4,333333333;4,5;2;4;2;4;5;5;2;4;5;4;5;4;4;5;#DIV/0!;#DIV/0!;0;;;;;;3;2;3;1;3;2;2;Italian
10406842725;221993133;2018-12-09 12:11:18;2018-12-09 12:12:19;37.162.74.243;;;;;1;;;;;#DIV/0!;#DIV/0!;#DIV/0!;0;0;;;;;;;;;;;;;#DIV/0!;#DIV/0!;0;;;;;;;;;;;;;Italian
10406842460;221993133;2018-12-09 12:11:17;2018-12-09 12:15:56;87.4.48.157;;;;;1;;2;;;3,333333333;2,333333333;2;1;1;3;1;3;4;1;1;2;1;3;3;3;2;#DIV/0!;#DIV/0!;0;;;;;;4;1;3;1;2;3;6;Italian
10406835391;221993133;2018-12-09 12:00:10;2018-12-09 12:01:56;93.33.4.24;;;;;2;;;;;#DIV/0!;#DIV/0!;#DIV/0!;0;0;;;;;;;;;;;;;2,5;2,5;1;3;2;2;3;1;3;2;3;1;2;2;6;Italian
10406833350;221993133;2018-12-09 11:56:54;2018-12-09 11:59:27;93.36.181.246;;;;;2;;;;;#DIV/0!;#DIV/0!;#DIV/0!;0;0;;;;;;;;;;;;;3;4;3;1;5;5;3;3;1;2;4;1;2;2;2;Italian
10406831580;221993133;2018-12-09 11:53:31;2018-12-09 11:56:49;87.18.203.216;;;;;1;;2;;;3,666666667;3,666666667;1,5;1;1;3;4;4;4;1;1;1;1;4;3;1;3;#DIV/0!;#DIV/0!;0;;;;;;2;2;2;1;5;1;1;Italian
10406829107;221993133;2018-12-09 11:48:51;2018-12-09 11:55:22;5.90.23.58;;;;;1;;2;;;3,666666667;4;1,5;1;2;4;4;5;3;1;1;1;2;4;3;1;3;#DIV/0!;#DIV/0!;0;;;;;;1;1;3;1;2;2;6;Italian
10406825901;221993133;2018-12-09 11:45:03;2018-12-09 11:46:53;93.71.83.190;;;;;1;1;2;;;4,333333333;3,333333333;1,25;1;1;5;4;5;4;1;1;2;1;4;1;1;1;#DIV/0!;#DIV/0!;0;;;;;;3;1;3;2;2;3;6;Italian
10406818508;221993133;2018-12-09 11:33:22;2018-12-09 11:34:50;5.90.76.80;;;;;2;;;;;#DIV/0!;#DIV/0!;#DIV/0!;0;0;;;;;;;;;;;;;3;3;1;3;3;5;1;1;4;1;3;2;2;3;6;Italian
10406818296;221993133;2018-12-09 11:32:56;2018-12-09 11:34:37;146.241.192.39;;;;;2;;;;;#DIV/0!;#DIV/0!;#DIV/0!;0;0;;;;;;;;;;;;;4;4;4;3;5;4;4;4;4;1;1;1;4;2;2;Italian
10406814787;221993133;2018-12-09 11:27:10;2018-12-09 11:28:29;79.24.88.193;;;;;2;;;;;#DIV/0!;#DIV/0!;#DIV/0!;0;0;;;;;;;;;;;;;2,5;2,5;3;1;4;4;1;3;4;4;4;1;2;3;6;Italian
10406813014;221993133;2018-12-09 11:24:19;2018-12-09 11:26:00;37.159.67.62;;;;;2;;;;;#DIV/0!;#DIV/0!;#DIV/0!;0;0;;;;;;;;;;;;;3;1,5;2;4;2;2;1;2;2;1;3;2;2;3;6;Italian
10406809588;221993133;2018-12-09 11:18:38;2018-12-09 11:21:20;79.30.27.170;;;;;2;;;;;#DIV/0!;#DIV/0!;#DIV/0!;0;0;;;;;;;;;;;;;3,5;2,5;1;4;3;4;1;1;3;3;5;1;2;3;6;Italian
10406804177;221993133;2018-12-09 11:09:56;2018-12-09 11:12:05;82.48.99.69;;;;;2;;;;;#DIV/0!;#DIV/0!;#DIV/0!;0;0;;;;;;;;;;;;;2;3,5;3;1;3;4;3;3;2;2;4;1;2;2;6;Italian
10406804030;221993133;2018-12-09 11:09:24;2018-12-09 11:13:19;37.159.84.224;;;;;2;;;;;#DIV/0!;#DIV/0!;#DIV/0!;0;0;;;;;;;;;;;;;2,5;2;1;3;2;2;2;1;1;2;3;1;2;2;2;Italian
10406802927;221993133;2018-12-09 11:08:02;2018-12-09 11:11:54;37.183.11.85;;;;;1;;2;;;3,666666667;3,333333333;1,5;1;2;3;4;3;4;1;1;1;2;4;3;2;2;#DIV/0!;#DIV/0!;0;;;;;;4;1;1;1;2;3;6;Italian
10406800912;221993133;2018-12-09 11:04:33;2018-12-09 11:06:54;82.48.98.54;;;;;2;;;;;#DIV/0!;#DIV/0!;#DIV/0!;0;0;;;;;;;;;;;;;3;2,5;3;2;4;4;1;3;2;2;4;1;2;3;6;Italian
10406794659;221993133;2018-12-09 10:54:48;2018-12-09 10:57:43;2.38.122.125;;;;;1;;2;;;3,666666667;3,666666667;2,25;1;1;3;4;4;4;1;1;1;1;4;3;3;4;#DIV/0!;#DIV/0!;0;;;;;;2;2;2;1;5;4;1;Italian
10406788182;221993133;2018-12-09 10:44:26;2018-12-09 10:46:26;5.95.106.91;;;;;2;;;;;#DIV/0!;#DIV/0!;#DIV/0!;0;0;;;;;;;;;;;;;3;3;3;3;3;3;3;3;1;1;4;1;4;2;2;Italian
10406787749;221993133;2018-12-09 10:43:38;2018-12-09 19:38:22;2.34.59.59;;;;;1;1;2;;;4,333333333;4;3;1;1;5;4;5;3;1;3;3;1;5;3;4;2;#DIV/0!;#DIV/0!;0;;;;;;3;1;3;2;5;2;7;Italian
10406786940;221993133;2018-12-09 10:42:08;2018-12-09 10:42:34;109.115.97.222;;;;;1;;;;;#DIV/0!;#DIV/0!;#DIV/0!;0;0;;;;;;;;;;;;;#DIV/0!;#DIV/0!;0;;;;;;;;;;;;;Italian
10406786254;221993133;2018-12-09 10:41:12;2018-12-09 10:44:35;93.36.185.93;;;;;1;1;;;4;5;4,666666667;2;2;2;5;5;5;5;2;3;1;2;5;4;1;3;#DIV/0!;#DIV/0!;0;;;;;;3;2;4;1;2;3;6;Italian
10406785516;221993133;2018-12-09 10:39:32;2018-12-09 10:43:38;151.27.134.137;;;;;1;;2;;;4;4;3,75;4;3;4;4;4;4;4;4;4;3;4;4;3;4;#DIV/0!;#DIV/0!;0;;;;;;3;1;1;1;4;2;2;Italian
10406784891;221993133;2018-12-09 10:38:31;2018-12-09 10:42:26;79.43.220.37;;;;;1;;2;;;3,333333333;3,333333333;2,75;1;3;5;2;4;1;1;1;5;3;4;4;1;4;#DIV/0!;#DIV/0!;0;;;;;;2;3;5;1;2;3;6;Italian
10406784342;221993133;2018-12-09 10:38:16;2018-12-09 10:40:33;87.14.139.226;;;;;1;1;2;;;5;4,666666667;2,75;2;2;5;5;4;5;2;1;4;2;5;5;1;5;#DIV/0!;#DIV/0!;0;;;;;;1;2;4;1;2;3;6;Italian
10406783501;221993133;2018-12-09 10:36:39;2018-12-09 10:39:57;37.159.78.187;;;;;1;;2;;;3,333333333;3,333333333;1,5;1;1;4;3;4;2;1;1;1;1;4;3;1;3;#DIV/0!;#DIV/0!;0;;;;;;2;2;5;2;2;3;6;Italian
10406780434;221993133;2018-12-09 10:28:28;2018-12-09 10:34:20;151.30.18.179;;;;;2;;;;;#DIV/0!;#DIV/0!;#DIV/0!;0;0;;;;;;;;;;;;;4;3,5;2;3;5;4;3;2;3;1;1;1;2;3;6;Italian
10406355322;221993133;2018-12-08 22:28:45;2018-12-09 20:27:34;5.90.212.174;;;;;1;;2;3;;4,333333333;4;4,25;3;2;5;4;4;4;3;5;4;2;4;4;4;4;#DIV/0!;#DIV/0!;0;;;;;;4;1;2;1;2;3;6;Italian
10406099524;221993133;2018-12-08 17:46:31;2018-12-08 17:59:04;62.19.4.23;;;;;2;;;;;#DIV/0!;#DIV/0!;#DIV/0!;0;0;;;;;;;;;;;;;3,5;2,5;3;3;4;3;2;3;4;1;4;2;2;3;6;Italian
10406049561;221993133;2018-12-08 16:58:34;2018-12-08 17:00:02;151.36.225.254;;;;;2;;;;;#DIV/0!;#DIV/0!;#DIV/0!;0;0;;;;;;;;;;;;;3;3;1;2;4;4;2;1;4;2;1;1;2;3;6;Italian
10406016880;221993133;2018-12-08 16:25:52;2018-12-08 16:30:41;131.175.147.132;;;;;1;;2;;;3,666666667;4;2;1;3;4;4;5;3;1;1;3;3;4;3;1;3;#DIV/0!;#DIV/0!;0;;;;;;2;2;5;1;2;3;6;Italian
10406010858;221993133;2018-12-08 16:19:59;2018-12-08 16:21:45;188.218.67.163;;;;;2;;;;;#DIV/0!;#DIV/0!;#DIV/0!;0;0;;;;;;;;;;;;;3;2,5;1;1;5;4;1;1;1;1;1;2;2;3;6;Italian
10405969711;221993133;2018-12-08 15:40:04;2018-12-08 15:44:00;5.169.232.233;;;;;1;;;;4;5;5;4;1;2;5;5;5;5;1;5;2;2;5;5;5;4;#DIV/0!;#DIV/0!;0;;;;;;2;2;5;2;5;2;2;Italian
10405876908;221993133;2018-12-08 14:08:26;2018-12-08 14:14:01;87.4.64.40;;;;;2;;;;;#DIV/0!;#DIV/0!;#DIV/0!;0;0;;;;;;;;;;;;;5;3;2;5;5;5;1;2;4;2;4;1;2;3;6;Italian
10405876337;221993133;2018-12-08 14:07:59;2018-12-08 14:18:52;5.90.209.154;;;;;1;1;2;;;4,666666667;4,333333333;2,5;1;1;5;4;5;4;1;5;1;1;5;4;1;3;#DIV/0!;#DIV/0!;0;;;;;;4;1;3;2;2;2;6;Italian
10405870211;221993133;2018-12-08 14:01:37;2018-12-08 14:05:38;80.116.180.189;;;;;2;;;;;#DIV/0!;#DIV/0!;#DIV/0!;0;0;;;;;;;;;;;;;1;2,5;2;1;1;4;1;2;4;1;2;1;2;3;6;Italian
10404783641;221993133;2018-12-07 20:36:42;2018-12-07 20:44:06;5.90.68.197;;;;;1;;2;;;3,333333333;3;1,75;2;1;4;1;5;1;2;1;1;1;5;3;4;1;#DIV/0!;#DIV/0!;0;;;;;;2;1;3;2;6;1;8;Italian
10404766202;221993133;2018-12-07 20:29:25;2018-12-07 20:33:46;5.90.14.118;;;;;1;;2;;4;2,333333333;4;3,25;1;1;1;5;5;1;1;5;2;1;5;2;2;4;#DIV/0!;#DIV/0!;0;;;;;;1;2;5;2;5;5;3;Italian
10404601380;221993133;2018-12-07 19:19:18;2018-12-07 19:21:37;93.34.139.25;;;;;1;;2;;;3,333333333;3;1,25;1;1;4;3;4;2;1;1;2;1;4;2;1;1;#DIV/0!;#DIV/0!;0;;;;;;4;2;3;2;2;3;2;Italian
10404502919;221993133;2018-12-07 18:39:08;2018-12-07 18:43:29;151.38.151.84;;;;;1;1;2;;;4,333333333;4;2,75;1;1;4;4;5;4;1;5;4;1;5;3;1;1;#DIV/0!;#DIV/0!;0;;;;;;2;2;4;2;4;2;11;Italian
10404430590;221993133;2018-12-07 18:11:52;2018-12-07 18:16:05;151.68.13.35;;;;;1;1;2;;;4,333333333;3,333333333;2,75;1;1;3;2;5;5;1;4;1;1;5;3;3;3;#DIV/0!;#DIV/0!;0;;;;;;2;1;4;2;4;5;2;Italian
10404270211;221993133;2018-12-07 17:14:12;2018-12-07 17:19:03;82.59.75.82;;;;;1;;2;;;3,666666667;3,333333333;3;3;4;3;3;4;4;3;3;3;4;4;3;3;3;#DIV/0!;#DIV/0!;0;;;;;;4;1;2;2;5;4;2;Italian
10403903689;221993133;2018-12-07 14:53:20;2018-12-07 14:55:14;130.25.65.120;;;;;1;;2;;;4,333333333;5;3;1;1;4;5;5;5;1;1;4;1;4;5;4;3;#DIV/0!;#DIV/0!;0;;;;;;3;2;3;1;2;3;6;Italian
10403895495;221993133;2018-12-07 14:49:42;2018-12-07 14:51:21;93.36.181.151;;;;;2;;;;;#DIV/0!;#DIV/0!;#DIV/0!;0;0;;;;;;;;;;;;;3;1,5;2;3;3;2;1;2;2;2;4;1;2;3;6;Italian
10403823037;221993133;2018-12-07 14:16:16;2018-12-07 14:18:46;94.138.185.151;;;;;2;;;;;#DIV/0!;#DIV/0!;#DIV/0!;0;0;;;;;;;;;;;;;2,5;3,5;4;2;3;4;3;4;4;1;2;1;2;2;2;Italian
10403770550;221993133;2018-12-07 13:49:14;2018-12-07 13:51:29;93.40.214.101;;;;;2;;;;;#DIV/0!;#DIV/0!;#DIV/0!;0;0;;;;;;;;;;;;;2;4;5;2;2;4;4;5;2;2;5;2;2;3;6;Italian
10403742720;221993133;2018-12-07 13:33:56;2018-12-07 13:36:40;176.201.199.66;;;;;1;;2;3;;4;4,666666667;4,5;1;2;5;4;5;3;1;4;5;2;4;5;5;4;#DIV/0!;#DIV/0!;0;;;;;;1;2;3;1;2;2;2;Italian
10403729634;221993133;2018-12-07 13:26:41;2018-12-07 13:30:02;176.201.190.181;;;;;2;;;;;#DIV/0!;#DIV/0!;#DIV/0!;0;0;;;;;;;;;;;;;3;2;3;3;3;2;2;3;2;3;4;1;2;2;6;Italian
10403707457;221993133;2018-12-07 13:14:07;2018-12-07 13:17:28;62.18.244.9;;;;;1;;2;3;;3,333333333;4,333333333;3,25;3;1;2;4;4;4;3;3;3;1;4;5;4;3;#DIV/0!;#DIV/0!;0;;;;;;4;1;5;2;5;4;10;Italian
10403701800;221993133;2018-12-07 13:11:06;2018-12-07 13:13:23;93.37.80.36;;;;;2;;;;;#DIV/0!;#DIV/0!;#DIV/0!;0;0;;;;;;;;;;;;;3;3,5;2;2;4;5;2;2;1;1;4;1;2;3;6;Italian
10403636377;221993133;2018-12-07 12:31:49;2018-12-07 12:35:24;62.19.158.191;;;;;1;1;2;;;4,333333333;4;2;2;1;3;3;5;5;2;2;1;1;5;4;1;4;#DIV/0!;#DIV/0!;0;;;;;;3;2;4;2;2;3;6;Italian
10403634703;221993133;2018-12-07 12:30:33;2018-12-07 12:34:41;5.90.252.80;;;;;1;;2;3;;4,666666667;4,333333333;2;3;1;5;4;4;4;3;2;1;1;5;5;4;1;#DIV/0!;#DIV/0!;0;;;;;;1;2;3;1;5;4;2;Italian
10403614487;221993133;2018-12-07 12:17:30;2018-12-07 12:18:00;82.51.59.179;;;;;1;;;;;#DIV/0!;#DIV/0!;#DIV/0!;0;0;;;;;;;;;;;;;#DIV/0!;#DIV/0!;0;;;;;;;;;;;;;Italian
10403597180;221993133;2018-12-07 12:06:12;2018-12-07 12:08:28;188.153.31.180;;;;;2;;;;;#DIV/0!;#DIV/0!;#DIV/0!;0;0;;;;;;;;;;;;;3;2,5;3;3;3;3;2;3;1;2;4;2;2;3;6;Italian
10403591764;221993133;2018-12-07 12:02:52;2018-12-07 12:05:42;91.252.15.123;;;;;1;;2;;;4;4,333333333;3,25;1;1;4;4;5;4;1;3;3;1;4;4;3;4;#DIV/0!;#DIV/0!;0;;;;;;1;1;3;1;2;2;6;Italian
10403589733;221993133;2018-12-07 12:01:19;2018-12-07 12:03:47;5.171.225.178;;;;;1;;2;3;;4;4,333333333;3,75;1;1;4;4;5;4;1;2;4;1;4;4;5;4;#DIV/0!;#DIV/0!;0;;;;;;2;2;5;2;2;3;6;Italian
10403580469;221993133;2018-12-07 11:55:40;2018-12-07 11:58:19;5.90.198.168;;;;;1;;;3;;5;4,666666667;3,5;1;1;5;4;5;5;1;3;3;1;5;5;5;3;#DIV/0!;#DIV/0!;0;;;;;;2;3;4;2;3;4;2;Italian
10403578636;221993133;2018-12-07 11:54:25;2018-12-07 11:57:40;151.20.4.134;;;;;2;;;;;#DIV/0!;#DIV/0!;#DIV/0!;0;0;;;;;;;;;;;;;3,5;1,5;2;4;3;2;1;2;2;2;3;2;2;3;6;Italian
10403567738;221993133;2018-12-07 11:47:59;2018-12-07 11:49:30;137.204.150.24;;;;;2;;;;;#DIV/0!;#DIV/0!;#DIV/0!;0;0;;;;;;;;;;;;;4;2;2;5;3;2;2;2;1;2;3;2;2;3;6;Italian
10403567693;221993133;2018-12-07 11:47:25;2018-12-07 11:52:50;130.192.232.11;;;;;1;;2;;;4;4;1,5;1;1;4;3;5;4;1;1;1;1;4;4;1;3;#DIV/0!;#DIV/0!;0;;;;;;3;2;4;2;2;4;6;Italian
10403566459;221993133;2018-12-07 11:46:50;2018-12-07 11:49:33;137.204.150.30;;;;;1;1;2;;;3,666666667;4;2,75;2;1;3;4;4;3;2;4;3;1;5;4;1;3;#DIV/0!;#DIV/0!;0;;;;;;4;2;4;2;2;3;6;Italian
10403560671;221993133;2018-12-07 11:43:17;2018-12-07 11:47:30;176.200.127.136;;;;;1;;2;;;4;4,666666667;2,5;1;1;4;4;5;4;1;4;2;1;4;5;1;3;#DIV/0!;#DIV/0!;0;;;;;;1;3;5;2;2;3;6;Italian
10403559595;221993133;2018-12-07 11:42:31;2018-12-07 11:44:13;82.59.75.82;;;;;2;;;;;#DIV/0!;#DIV/0!;#DIV/0!;0;0;;;;;;;;;;;;;3,5;3,5;3;3;4;5;2;3;4;1;2;2;2;3;6;Italian
10403454338;221993133;2018-12-07 10:27:28;2018-12-07 10:36:44;37.180.2.115;;;;;1;;2;;;3,333333333;2,666666667;1,25;1;1;5;4;3;1;1;1;1;1;4;1;1;2;#DIV/0!;#DIV/0!;0;;;;;;3;2;3;2;4;3;2;Italian
10403448055;221993133;2018-12-07 10:23:26;2018-12-07 10:27:39;93.43.85.174;;;;;1;;;;4;3,666666667;4,666666667;3;1;1;4;5;5;2;1;5;1;1;5;4;1;5;#DIV/0!;#DIV/0!;0;;;;;;2;2;3;2;2;3;2;Italian
10403384555;221993133;2018-12-07 9:39:01;2018-12-07 9:41:30;94.161.190.10;;;;;2;;;;;#DIV/0!;#DIV/0!;#DIV/0!;0;0;;;;;;;;;;;;;3,5;3,5;2;3;4;4;3;2;1;1;1;1;2;3;6;Italian
10403351778;221993133;2018-12-07 9:14:28;2018-12-07 9:17:18;5.90.207.174;;;;;1;;2;;;3;3,666666667;1,5;1;1;3;4;4;3;1;1;1;1;3;3;1;3;#DIV/0!;#DIV/0!;0;;;;;;1;1;4;1;2;3;2;Italian
10403339026;221993133;2018-12-07 9:04:32;2018-12-07 9:05:36;37.160.41.202;;;;;1;;;;;#DIV/0!;#DIV/0!;#DIV/0!;0;0;;;;;;;;;;;;;#DIV/0!;#DIV/0!;0;;;;;;;;;;;;;Italian
10403304911;221993133;2018-12-07 8:38:44;2018-12-07 8:39:23;5.90.208.140;;;;;1;;;;;#DIV/0!;#DIV/0!;#DIV/0!;0;0;;;;;;;;;;;;;#DIV/0!;#DIV/0!;0;;;;;;;;;;;;;Italian
10403272967;221993133;2018-12-07 8:13:57;2018-12-07 8:14:16;176.200.178.68;;;;;1;;;;;#DIV/0!;#DIV/0!;#DIV/0!;0;0;;;;;;;;;;;;;#DIV/0!;#DIV/0!;0;;;;;;;;;;;;;Italian
10403265119;221993133;2018-12-07 8:07:20;2018-12-07 8:09:09;151.36.136.229;;;;;2;;;;;#DIV/0!;#DIV/0!;#DIV/0!;0;0;;;;;;;;;;;;;2,5;3,5;3;1;4;4;3;3;4;1;3;1;2;2;6;Italian
10403257520;221993133;2018-12-07 8:00:21;2018-12-07 8:02:54;93.32.73.50;;;;;1;;2;;;2,666666667;3,666666667;2,25;1;3;4;3;4;3;1;2;3;3;1;4;2;2;#DIV/0!;#DIV/0!;0;;;;;;1;1;4;1;4;4;2;Italian
10403252192;221993133;2018-12-07 7:55:06;2018-12-07 7:59:24;176.200.166.122;;;;;1;1;2;;;4;4,333333333;3,25;3;2;4;4;5;4;3;3;4;2;4;4;3;3;#DIV/0!;#DIV/0!;0;;;;;;2;1;3;1;4;2;2;Italian
10402541454;221993133;2018-12-06 23:21:56;2018-12-06 23:22:25;2.34.23.175;;;;;2;;;;;#DIV/0!;#DIV/0!;#DIV/0!;0;0;;;;;;;;;;;;;#DIV/0!;#DIV/0!;0;;;;;;;;;;;;;Italian
10402317686;221993133;2018-12-06 21:47:22;2018-12-06 21:49:07;176.200.142.164;;;;;2;;;;;#DIV/0!;#DIV/0!;#DIV/0!;0;0;;;;;;;;;;;;;3,5;2,5;1;5;2;4;1;1;1;2;5;2;2;2;6;Italian
10402233822;221993133;2018-12-06 21:14:21;2018-12-06 21:16:29;91.253.104.186;;;;;2;;;;;#DIV/0!;#DIV/0!;#DIV/0!;0;0;;;;;;;;;;;;;3,5;3;2;3;4;4;2;2;3;2;4;1;2;2;2;Italian
10402022135;221993133;2018-12-06 19:52:21;2018-12-06 19:57:44;176.200.164.200;;;;;1;;;;4;4;4,333333333;1,75;1;3;3;5;4;4;1;2;1;3;5;4;1;3;#DIV/0!;#DIV/0!;0;;;;;;2;1;3;1;5;2;1;Italian
10401858430;221993133;2018-12-06 18:48:49;2018-12-06 18:51:03;5.90.75.26;;;;;1;;2;;;4,333333333;3,666666667;4,25;4;1;5;3;4;4;4;3;5;1;4;4;5;4;#DIV/0!;#DIV/0!;0;;;;;;3;2;1;1;2;2;1;Italian
10401744216;221993133;2018-12-06 18:06:05;2018-12-06 18:08:16;87.20.63.204;;;;;1;;;3;;4;4;4;4;4;4;4;4;4;4;4;4;4;4;4;4;4;#DIV/0!;#DIV/0!;0;;;;;;1;3;3;1;4;2;2;Italian
10401728864;221993133;2018-12-06 18:00:45;2018-12-06 18:03:44;5.90.222.11;;;;;1;;2;3;;3,333333333;4;3;1;3;3;5;4;3;1;3;3;3;4;3;3;3;#DIV/0!;#DIV/0!;0;;;;;;3;1;5;1;5;2;1;Italian
10401670513;221993133;2018-12-06 17:40:12;2018-12-06 17:42:05;176.200.170.72;;;;;2;;;;;#DIV/0!;#DIV/0!;#DIV/0!;0;0;;;;;;;;;;;;;2,5;3,5;1;1;4;4;3;1;3;2;4;1;2;5;2;Italian
10401655239;221993133;2018-12-06 17:34:49;2018-12-06 17:38:34;176.200.66.194;;;;;2;;;;;#DIV/0!;#DIV/0!;#DIV/0!;0;0;;;;;;;;;;;;;4;3,5;1;3;5;5;2;1;3;2;4;2;2;2;6;Italian
10401634156;221993133;2018-12-06 17:27:13;2018-12-06 17:30:20;37.160.55.65;;;;;1;;2;;;3,666666667;4;2,75;3;3;3;4;4;4;3;2;2;3;4;4;4;3;#DIV/0!;#DIV/0!;0;;;;;;2;2;5;1;3;4;9;Italian
10401623710;221993133;2018-12-06 17:23:52;2018-12-06 17:25:45;91.253.53.177;;;;;2;;;;;#DIV/0!;#DIV/0!;#DIV/0!;0;0;;;;;;;;;;;;;4;1,5;3;5;3;2;1;3;4;2;5;2;2;5;2;Italian
10401623042;221993133;2018-12-06 17:23:31;2018-12-06 17:26:09;93.36.189.241;;;;;1;;2;;;5;4;2,75;1;3;5;4;4;5;1;3;3;3;5;4;2;3;#DIV/0!;#DIV/0!;0;;;;;;3;1;3;2;2;3;6;Italian
10401618741;221993133;2018-12-06 17:22:14;2018-12-06 17:23:12;91.253.53.177;;;;;2;;;;;#DIV/0!;#DIV/0!;#DIV/0!;0;0;;;;;;;;;;;;;3;1;3;5;1;1;1;3;;;;;;;;Italian
10401586376;221993133;2018-12-06 17:11:04;2018-12-06 17:13:29;37.159.70.115;;;;;1;;2;3;;4,333333333;4;4,5;1;5;3;4;4;5;1;3;5;5;5;4;5;5;#DIV/0!;#DIV/0!;0;;;;;;3;3;3;1;3;2;2;Italian
10401552338;221993133;2018-12-06 16:59:50;2018-12-06 17:01:34;159.149.8.210;;;;;1;;;3;;3,666666667;4;2,75;1;2;3;4;4;4;1;2;1;2;4;4;4;4;#DIV/0!;#DIV/0!;0;;;;;;2;1;4;2;2;4;6;Italian
10401551115;221993133;2018-12-06 16:58:27;2018-12-06 17:01:26;5.90.199.195;;;;;1;1;2;;;4,666666667;4,333333333;2,25;1;1;4;4;5;5;1;2;1;1;5;4;1;5;#DIV/0!;#DIV/0!;0;;;;;;2;1;2;1;2;3;6;Italian
10401499954;221993133;2018-12-06 16:40:33;2018-12-06 16:44:08;149.132.26.47;;;;;1;1;;;;3,333333333;3,666666667;1,5;1;1;4;4;4;2;1;1;1;1;4;3;1;3;#DIV/0!;#DIV/0!;0;;;;;;3;1;4;2;2;2;6;Italian
10401479102;221993133;2018-12-06 16:33:14;2018-12-06 16:34:54;37.227.2.212;;;;;2;;;;;#DIV/0!;#DIV/0!;#DIV/0!;0;0;;;;;;;;;;;;;2;3;4;1;3;2;4;4;2;3;5;1;2;4;11;Italian
10401478611;221993133;2018-12-06 16:32:11;2018-12-06 16:34:28;176.200.167.102;;;;;2;;;;;#DIV/0!;#DIV/0!;#DIV/0!;0;0;;;;;;;;;;;;;3;4;2;2;4;5;3;2;2;1;3;2;3;4;2;Italian
10401478238;221993133;2018-12-06 16:32:52;2018-12-06 16:34:43;93.42.47.140;;;;;2;;;;;#DIV/0!;#DIV/0!;#DIV/0!;0;0;;;;;;;;;;;;;5;3;1;5;5;5;1;1;2;3;5;2;2;3;6;Italian
10401438088;221993133;2018-12-06 16:18:49;2018-12-06 16:21:24;193.204.248.251;;;;;2;;;;;#DIV/0!;#DIV/0!;#DIV/0!;0;0;;;;;;;;;;;;;2;1;1;1;3;1;1;1;4;3;5;1;2;3;6;Italian
10401386824;221993133;2018-12-06 16:00:18;2018-12-06 16:03:50;62.211.8.242;;;;;2;;;;;#DIV/0!;#DIV/0!;#DIV/0!;0;0;;;;;;;;;;;;;2,5;4;2;1;4;5;3;2;3;1;3;2;2;2;6;Italian
10401385492;221993133;2018-12-06 16:00:15;2018-12-06 16:04:24;151.48.74.103;;;;;1;;2;;;3,666666667;4;3;1;3;4;4;4;5;1;2;2;3;2;4;4;4;#DIV/0!;#DIV/0!;0;;;;;;4;2;2;1;4;2;2;Italian
10401327790;221993133;2018-12-06 15:38:39;2018-12-06 15:41:54;79.54.129.110;;;;;2;;;;;#DIV/0!;#DIV/0!;#DIV/0!;0;0;;;;;;;;;;;;;3;2,5;1;2;4;4;1;1;3;2;2;1;2;3;6;Italian
10401325532;221993133;2018-12-06 15:38:01;2018-12-06 15:39:47;91.253.19.194;;;;;2;;;;;#DIV/0!;#DIV/0!;#DIV/0!;0;0;;;;;;;;;;;;;3,5;3;1;2;5;5;1;1;4;2;4;1;2;3;6;Italian
10401301212;221993133;2018-12-06 15:28:59;2018-12-06 15:32:28;93.32.75.133;;;;;1;1;2;;;3;3,333333333;3;2;3;4;3;4;3;2;4;2;3;2;3;3;3;#DIV/0!;#DIV/0!;0;;;;;;3;1;2;1;4;1;5;Italian
10401295007;221993133;2018-12-06 15:26:44;2018-12-06 15:29:54;176.200.67.212;;;;;1;;2;;;5;5;2;3;1;5;5;5;5;3;3;3;1;5;5;1;1;#DIV/0!;#DIV/0!;0;;;;;;3;2;5;1;3;1;3;Italian
10401292657;221993133;2018-12-06 15:25:27;2018-12-06 15:29:30;176.200.182.75;;;;;1;1;;;;4,666666667;5;3,25;1;1;4;5;5;5;1;5;2;1;5;5;1;5;#DIV/0!;#DIV/0!;0;;;;;;3;1;2;1;4;2;5;Italian
10401283611;221993133;2018-12-06 15:22:09;2018-12-06 15:25:21;151.48.90.209;;;;;2;;;;;#DIV/0!;#DIV/0!;#DIV/0!;0;0;;;;;;;;;;;;;3;3;5;1;5;5;1;5;;;;;;;;Italian
10401276634;221993133;2018-12-06 15:19:48;2018-12-06 15:22:57;176.200.153.25;;;;;1;;2;;;3,666666667;5;5;1;5;1;5;5;5;1;5;5;5;5;5;5;5;#DIV/0!;#DIV/0!;0;;;;;;3;1;5;2;4;4;4;Italian
10401275546;221993133;2018-12-06 15:19:12;2018-12-06 15:21:09;131.175.147.2;;;;;2;;;;;#DIV/0!;#DIV/0!;#DIV/0!;0;0;;;;;;;;;;;;;3;2;2;4;2;3;1;2;1;1;4;1;2;3;6;Italian
10401271275;221993133;2018-12-06 15:17:11;2018-12-06 15:22:08;37.227.136.6;;;;;1;;2;3;;3,666666667;5;3,75;3;1;3;5;5;4;3;2;3;1;4;5;5;5;#DIV/0!;#DIV/0!;0;;;;;;3;2;4;1;1;1;6;Italian
10401268371;221993133;2018-12-06 15:16:40;2018-12-06 15:18:19;176.200.178.205;;;;;2;;;;;#DIV/0!;#DIV/0!;#DIV/0!;0;0;;;;;;;;;;;;;3;2;2;3;3;1;3;2;1;2;5;1;2;2;11;Italian
10401267348;221993133;2018-12-06 15:16:16;2018-12-06 15:17:50;176.200.146.101;;;;;2;;;;;#DIV/0!;#DIV/0!;#DIV/0!;0;0;;;;;;;;;;;;;3;1;1;3;3;1;1;1;1;2;4;1;3;2;6;Italian
10401255155;221993133;2018-12-06 15:11:14;2018-12-06 15:15:05;188.153.1.217;;;;;2;;;;;#DIV/0!;#DIV/0!;#DIV/0!;0;0;;;;;;;;;;;;;1,5;3;5;2;1;3;3;5;2;3;4;2;2;2;6;Italian
10401251773;221993133;2018-12-06 15:09:05;2018-12-06 15:10:24;131.175.147.207;;;;;1;;;;;#DIV/0!;#DIV/0!;#DIV/0!;0;0;;;;;;;;;;;;;#DIV/0!;#DIV/0!;0;;;;;;;;;;;;;Italian
10401247888;221993133;2018-12-06 15:08:20;2018-12-06 15:10:31;149.132.77.80;;;;;2;;;;;#DIV/0!;#DIV/0!;#DIV/0!;0;0;;;;;;;;;;;;;2,5;3;2;2;3;3;3;2;4;2;5;2;2;2;6;Italian
10401247855;221993133;2018-12-06 15:08:32;2018-12-06 15:11:35;62.221.168.95;;;;;1;;2;;;3,666666667;3;3,25;3;3;3;3;4;4;3;4;4;3;4;2;2;3;#DIV/0!;#DIV/0!;0;;;;;;3;1;3;1;2;4;6;Italian
10401244720;221993133;2018-12-06 15:07:06;2018-12-06 15:10:23;81.0.2.203;;;;;2;;;;;#DIV/0!;#DIV/0!;#DIV/0!;0;0;;;;;;;;;;;;;4;2,5;2;4;4;3;2;2;1;1;3;1;2;4;6;Italian
10401238772;221993133;2018-12-06 15:03:00;2018-12-06 15:07:44;131.175.147.207;;;;;2;;;;;#DIV/0!;#DIV/0!;#DIV/0!;0;0;;;;;;;;;;;;;2;2,5;3;2;2;4;1;3;4;1;2;2;2;3;6;Italian
10401237744;221993133;2018-12-06 15:04:34;2018-12-06 15:07:21;95.237.132.13;;;;;1;;2;;;3;4,333333333;1,75;1;1;4;4;5;3;1;1;1;1;2;4;1;4;#DIV/0!;#DIV/0!;0;;;;;;1;1;4;1;3;4;2;Italian
10401234869;221993133;2018-12-06 15:03:31;2018-12-06 15:06:50;185.11.155.252;;;;;1;1;;;;2,333333333;2,333333333;1;1;1;1;2;4;1;1;1;1;1;5;1;1;1;#DIV/0!;#DIV/0!;0;;;;;;3;1;3;2;2;4;6;Italian
10401231416;221993133;2018-12-06 15:02:09;2018-12-06 15:10:16;5.90.62.247;;;;;1;;;;4;3,333333333;3,666666667;1,75;1;1;2;4;4;4;1;1;1;1;4;3;2;3;#DIV/0!;#DIV/0!;0;;;;;;1;1;3;1;2;2;6;Italian
10401227849;221993133;2018-12-06 15:00:49;2018-12-06 15:03:42;131.175.147.207;;;;;1;;2;;;2,666666667;2,666666667;1,25;1;1;3;3;4;3;1;1;1;1;2;1;1;2;#DIV/0!;#DIV/0!;0;;;;;;1;1;4;1;2;3;6;Italian
10401221728;221993133;2018-12-06 14:58:10;2018-12-06 15:01:30;131.175.147.208;;;;;1;;2;3;;3,333333333;3,666666667;2,5;1;1;4;3;4;3;1;2;1;1;3;4;4;3;#DIV/0!;#DIV/0!;0;;;;;;3;1;3;2;2;3;6;Italian
10401212823;221993133;2018-12-06 14:54:05;2018-12-06 14:54:43;131.175.147.208;;;;;1;;;;;#DIV/0!;#DIV/0!;#DIV/0!;0;0;;;;;;;;;;;;;#DIV/0!;#DIV/0!;0;;;;;;;;;;;;;Italian
10401210670;221993133;2018-12-06 14:53:40;2018-12-06 14:57:47;93.71.87.99;;;;;2;;;;;#DIV/0!;#DIV/0!;#DIV/0!;0;0;;;;;;;;;;;;;3,5;2,5;1;4;3;3;2;1;4;1;2;2;2;2;6;Italian
10401199556;221993133;2018-12-06 14:35:48;2018-12-06 14:51:25;131.175.147.207;;;;;1;;2;;;4,333333333;4;3,5;1;3;3;4;4;5;1;2;4;3;5;4;4;4;#DIV/0!;#DIV/0!;0;;;;;;3;1;1;1;2;3;6;Italian
10401176114;221993133;2018-12-06 14:37:44;2018-12-06 14:45:03;131.175.147.207;;;;;2;;;;;#DIV/0!;#DIV/0!;#DIV/0!;0;0;;;;;;;;;;;;;3;3;4;2;4;4;2;4;4;2;2;2;2;3;6;Italian
10401173478;221993133;2018-12-06 14:37:12;2018-12-06 14:41:08;131.175.12.86;;;;;1;;;;4;3,333333333;3,333333333;3,25;2;3;3;3;4;3;2;4;3;3;4;3;2;4;#DIV/0!;#DIV/0!;0;;;;;;1;2;4;1;2;3;6;Italian
10401173388;221993133;2018-12-06 14:35:55;2018-12-06 14:39:01;131.175.147.207;;;;;2;;;;;#DIV/0!;#DIV/0!;#DIV/0!;0;0;;;;;;;;;;;;;2;3;2;2;2;4;2;2;2;1;3;2;2;3;6;Italian
