Assigned Cluster
[1 1 0 1 0 0 1 1 0 0 1 0 0 1 1 1 0 0 0 1 0 1 1 0 0 0 0 0 0 1 1 1 0 0 1 1 0
 1 1 1 1 0 0 1 1 1 1 1 0 0 1 0 0 1 1 1 1 0 0 0 0 0 0 1 0 1 1 0 0 0 0 1 1 0
 0 1 1 0 0 1 1 1 1 1 1 1 0 1 1 1 1 1 1 1 0 1 0 1 1 0 1 1 1 0 1 1 0 1 1 1 1
 1 1 1 1 0 0 1 1 1 0 1 1 1 1 0 1 0 1 1 1 1 0 1 0 1 1 1 1 1 1 0 1 0 0 1 1 1
 0 1 1 0 1 0 1 0 1 0 0 0 0 1 1 0 0 1 0 1 1 0 1 1 1 1 1 1 0 1 1 0 0 1 1 1 0
 1 1 0 0 0 0 0 0 1 1 1 0 1 0 1 0 1 1 0 1 0 1 1 1 1 1 1 1 1 1 1 1 0 1 1 0 1
 0 0 1 1 1 1 1 1 1 1 1 1 0 1 0 1 1 1 1 0 0 0 0 0 0 1 1]


Value by Cluster


Cluster  1
[ 4.  3.  5.  3.  1.  3.  4.  3.  4.  4.  4.  3.  2.  1.  3.  2.  2.  3.
 11.]
[4. 4. 3. 4. 4. 2. 1. 3. 5. 5. 3. 4. 2. 2. 3. 1. 2. 4. 2.]
[5. 3. 3. 3. 1. 1. 1. 1. 5. 5. 4. 4. 2. 2. 3. 2. 2. 3. 6.]
[4. 2. 3. 5. 1. 1. 1. 4. 4. 5. 5. 5. 1. 2. 3. 2. 2. 3. 6.]
[3. 5. 4. 4. 1. 5. 1. 2. 4. 3. 3. 3. 4. 1. 3. 1. 2. 3. 6.]
[3. 3. 3. 4. 1. 4. 4. 1. 5. 5. 3. 5. 3. 1. 2. 1. 3. 4. 6.]
[2. 4. 5. 2. 1. 3. 4. 1. 5. 5. 5. 5. 4. 2. 3. 1. 3. 4. 6.]
[2. 4. 5. 5. 1. 1. 4. 1. 3. 5. 5. 1. 3. 1. 4. 2. 2. 4. 6.]
[5. 5. 5. 5. 1. 1. 1. 1. 5. 5. 1. 1. 2. 2. 4. 2. 2. 2. 6.]
[5. 3. 4. 4. 3. 3. 3. 3. 4. 4. 4. 3. 2. 1. 2. 1. 2. 3. 6.]
[4. 4. 4. 5. 1. 3. 4. 1. 4. 5. 3. 2. 2. 3. 5. 2. 4. 4. 3.]
[5. 4. 5. 5. 2. 3. 3. 3. 3. 4. 1. 4. 4. 4. 5. 2. 2. 4. 6.]
[5. 5. 5. 5. 1. 1. 3. 1. 4. 5. 4. 1. 2. 5. 5. 2. 2. 2. 6.]
[4. 4. 4. 4. 3. 3. 3. 2. 5. 3. 2. 2. 3. 1. 2. 1. 2. 3. 6.]
[5. 5. 5. 4. 1. 1. 1. 1. 5. 4. 1. 4. 3. 1. 3. 2. 2. 3. 6.]
[3. 5. 4. 5. 1. 2. 1. 1. 5. 5. 1. 5. 3. 3. 5. 2. 2. 2. 6.]
[4. 3. 4. 5. 1. 4. 4. 1. 5. 5. 4. 2. 4. 1. 3. 2. 2. 3. 6.]
[4. 5. 4. 4. 3. 3. 4. 2. 5. 4. 4. 4. 3. 1. 3. 2. 2. 3. 6.]
[4. 2. 4. 3. 1. 3. 3. 1. 5. 5. 5. 4. 3. 1. 3. 1. 2. 3. 6.]
[5. 4. 5. 4. 3. 4. 4. 4. 5. 5. 5. 5. 2. 2. 3. 2. 2. 3. 6.]
[4. 5. 4. 4. 1. 3. 1. 1. 4. 4. 4. 3. 3. 1. 2. 2. 2. 3. 6.]
[3. 3. 5. 4. 3. 1. 5. 4. 5. 3. 4. 4. 3. 3. 4. 2. 2. 2. 6.]
[5. 4. 4. 2. 5. 4. 3. 4. 3. 4. 4. 4. 2. 1. 1. 2. 4. 2. 2.]
[4. 5. 5. 5. 1. 3. 3. 1. 5. 3. 3. 3. 2. 1. 1. 2. 5. 2. 2.]
[5. 4. 4. 5. 3. 3. 3. 1. 5. 4. 5. 3. 2. 2. 3. 2. 4. 2. 2.]
[4. 4. 5. 4. 3. 3. 5. 3. 4. 4. 3. 3. 2. 2. 4. 2. 5. 2. 4.]
[3. 4. 5. 5. 1. 3. 3. 1. 3. 4. 3. 2. 2. 3. 3. 1. 5. 1. 8.]
[5. 3. 5. 4. 1. 3. 1. 1. 4. 5. 1. 3. 2. 2. 4. 2. 5. 2. 4.]
[4. 4. 5. 3. 1. 5. 1. 1. 5. 4. 1. 3. 4. 1. 1. 1. 2. 3. 6.]
[4. 3. 4. 3. 2. 3. 3. 3. 4. 4. 2. 3. 1. 1. 2. 2. 2. 3. 6.]
[5. 4. 5. 3. 1. 2. 4. 2. 4. 4. 2. 2. 2. 1. 2. 2. 2. 3. 6.]
[ 3.  5.  3.  3.  1.  1.  5.  1.  5.  5.  4.  3.  4.  5.  5.  2.  5.  3.
 11.]
[4. 5. 5. 4. 1. 1. 1. 3. 4. 4. 3. 3. 2. 2. 5. 2. 5. 1. 2.]
[4. 4. 4. 5. 1. 2. 1. 1. 4. 4. 4. 3. 3. 1. 2. 1. 2. 3. 6.]
[3. 5. 5. 4. 1. 4. 2. 1. 5. 4. 1. 5. 2. 2. 4. 2. 5. 3. 3.]
[5. 5. 5. 3. 1. 5. 4. 1. 5. 3. 1. 3. 2. 2. 4. 2. 2. 3. 6.]
[5. 4. 5. 5. 2. 5. 2. 1. 2. 3. 1. 4. 3. 3. 3. 2. 2. 2. 6.]
[ 4.  5.  5.  4.  2.  4.  4.  1.  5.  3.  3.  3.  2.  2.  3.  2.  2.  3.
 10.]
[4. 4. 4. 4. 1. 4. 4. 3. 4. 4. 1. 3. 2. 2. 4. 1. 2. 2. 6.]
[4. 4. 5. 2. 1. 3. 3. 5. 4. 4. 2. 4. 1. 1. 2. 1. 2. 4. 6.]
[4. 4. 5. 4. 1. 4. 4. 1. 4. 4. 1. 4. 3. 2. 1. 1. 3. 4. 6.]
[4. 4. 4. 4. 2. 2. 3. 1. 4. 4. 1. 4. 2. 2. 4. 1. 2. 3. 6.]
[3. 4. 4. 2. 3. 4. 4. 1. 4. 4. 1. 3. 1. 2. 3. 1. 2. 2. 6.]
[3. 3. 4. 4. 3. 3. 3. 1. 5. 4. 4. 2. 1. 1. 3. 2. 5. 4. 3.]
[4. 5. 4. 5. 3. 3. 1. 1. 4. 5. 2. 4. 3. 2. 4. 2. 5. 4. 3.]
[5. 4. 4. 5. 1. 3. 1. 1. 5. 3. 1. 3. 2. 2. 4. 1. 2. 4. 6.]
[3. 4. 4. 4. 3. 3. 4. 3. 5. 4. 4. 4. 1. 2. 3. 1. 2. 3. 6.]
[4. 4. 4. 4. 3. 4. 2. 3. 4. 4. 1. 3. 3. 1. 2. 1. 2. 4. 6.]
[4. 4. 3. 3. 1. 4. 4. 2. 4. 5. 3. 4. 3. 2. 2. 1. 2. 3. 6.]
[2. 4. 5. 4. 1. 4. 1. 1. 4. 5. 4. 4. 4. 2. 2. 2. 2. 2. 6.]
[4. 4. 5. 4. 3. 3. 2. 1. 4. 4. 3. 3. 1. 2. 3. 1. 5. 2. 3.]
[4.         4.         4.         3.         3.         3.
 3.         1.         4.         4.         3.         3.
 2.33333333 1.69477912 3.14056225 1.44578313 3.10843373 2.79116466
 5.32128514]
[3.         4.         5.         4.         4.         5.
 3.         1.         5.         3.         3.         3.
 2.33333333 1.69477912 3.14056225 1.44578313 3.10843373 2.79116466
 5.32128514]
[4. 5. 5. 2. 3. 4. 2. 1. 5. 5. 1. 3. 2. 3. 3. 2. 5. 2. 7.]
[ 4.  4.  4.  4.  1.  1.  2.  3.  5.  3.  3.  4.  2.  2.  3.  2.  5.  3.
 10.]
[4. 4. 4. 4. 3. 3. 3. 3. 5. 4. 3. 4. 1. 1. 3. 1. 2. 3. 6.]
[4. 4. 5. 2. 1. 1. 1. 1. 5. 5. 5. 2. 1. 2. 2. 1. 5. 2. 3.]
[4. 3. 5. 5. 3. 1. 1. 1. 3. 5. 1. 5. 1. 2. 3. 1. 3. 2. 2.]
[ 4.  5.  5.  5.  3.  3.  3.  4.  5.  4.  3.  4.  3.  2.  4.  2.  5.  2.
 10.]
[5. 5. 4. 4. 2. 1. 2. 1. 4. 3. 3. 3. 1. 2. 4. 2. 5. 4. 2.]
[4. 4. 4. 4. 1. 3. 4. 1. 4. 3. 2. 4. 2. 2. 4. 1. 5. 4. 1.]
[5. 5. 5. 5. 2. 3. 1. 1. 5. 5. 5. 4. 3. 2. 3. 1. 2. 2. 6.]
[4. 4. 5. 4. 3. 3. 4. 2. 4. 5. 5. 4. 3. 1. 3. 1. 5. 2. 2.]
[4. 5. 5. 2. 1. 1. 1. 1. 5. 5. 1. 2. 2. 2. 5. 2. 2. 4. 2.]
[4. 3. 4. 3. 2. 3. 2. 2. 4. 4. 1. 4. 2. 2. 3. 2. 2. 3. 6.]
[2.         3.         4.         4.         3.         3.
 1.         1.         4.         5.         3.         4.
 2.33333333 1.69477912 3.14056225 1.44578313 3.10843373 2.79116466
 5.32128514]
[5.         5.         5.         5.         3.         3.
 3.         1.         5.         5.         5.         2.
 2.33333333 1.69477912 3.14056225 1.44578313 3.10843373 2.79116466
 5.32128514]
[ 4.  4.  4.  5.  1.  2.  4.  1.  4.  5.  5.  2.  2.  3.  5.  1.  4.  4.
 10.]
[4. 4. 5. 4. 3. 4. 4. 1. 4. 4. 4. 3. 4. 1. 3. 2. 5. 4. 2.]
[4.         4.         5.         4.         3.         1.
 1.         1.         3.         4.         1.         4.
 2.33333333 1.69477912 3.14056225 1.44578313 3.10843373 2.79116466
 5.32128514]
[4. 4. 4. 4. 3. 4. 4. 3. 3. 4. 3. 4. 4. 1. 3. 2. 2. 3. 2.]
[ 4.  4.  5.  5.  3.  3.  2.  1.  3.  4.  4.  5.  2.  2.  3.  1.  5.  2.
 10.]
[4. 4. 4. 3. 2. 1. 1. 3. 4. 3. 3. 3. 2. 3. 4. 1. 4. 2. 2.]
[5. 5. 5. 5. 3. 5. 5. 5. 5. 5. 5. 5. 1. 3. 3. 1. 5. 2. 2.]
[5. 5. 5. 3. 1. 5. 4. 1. 5. 4. 3. 3. 2. 2. 4. 2. 2. 2. 6.]
[4. 4. 4. 4. 4. 1. 1. 1. 5. 4. 4. 4. 3. 2. 3. 2. 2. 2. 7.]
[5. 5. 5. 5. 3. 5. 5. 3. 5. 3. 3. 5. 4. 1. 1. 1. 5. 2. 2.]
[4. 4. 4. 3. 4. 4. 4. 3. 5. 4. 4. 4. 2. 3. 4. 2. 2. 3. 6.]
[4. 4. 4. 4. 1. 5. 1. 1. 4. 3. 3. 3. 4. 2. 2. 1. 5. 2. 2.]
[ 4.  5.  4.  4.  1.  4.  3.  1.  5.  3.  3.  4.  3.  2.  3.  2.  5.  5.
 10.]
[ 4.  4.  4.  4.  1.  4.  3.  1.  4.  4.  4.  4.  2.  3.  5.  1.  5.  4.
 11.]
[5. 5. 4. 4. 1. 3. 4. 1. 5. 3. 3. 4. 2. 2. 5. 2. 2. 2. 6.]
[5.         5.         4.         4.         1.         1.
 1.         1.         4.         4.         1.         3.
 3.         2.         4.         1.44578313 3.10843373 2.79116466
 5.32128514]
[5. 5. 5. 5. 1. 1. 1. 1. 5. 5. 5. 4. 3. 1. 5. 1. 5. 4. 1.]
[5. 5. 5. 3. 1. 2. 1. 3. 4. 4. 1. 5. 2. 3. 4. 2. 2. 3. 6.]
[5. 5. 5. 5. 3. 4. 1. 3. 5. 4. 4. 3. 2. 2. 3. 2. 5. 4. 1.]
[4. 3. 5. 3. 1. 4. 3. 1. 4. 3. 3. 3. 2. 3. 4. 1. 2. 2. 6.]
[4. 5. 5. 5. 3. 4. 3. 3. 3. 4. 4. 3. 3. 1. 3. 1. 5. 2. 2.]
[3. 3. 4. 5. 3. 3. 3. 2. 4. 3. 3. 3. 2. 2. 4. 2. 5. 1. 7.]
[ 5.  5.  5.  4.  2.  5.  2.  3.  5.  5.  3.  2.  3.  1.  3.  2.  5.  4.
 10.]
[1. 4. 4. 4. 3. 4. 4. 1. 5. 4. 4. 4. 1. 1. 4. 2. 5. 2. 7.]
[ 4.  4.  4.  5.  1.  4.  4.  1.  5.  4.  4.  3.  2.  2.  3.  2.  5.  4.
 10.]
[4. 5. 4. 4. 1. 3. 3. 2. 5. 3. 2. 4. 2. 2. 4. 1. 5. 4. 8.]
[ 4.  4.  4.  4.  1.  1.  2.  1.  5.  5.  4.  4.  1.  1.  2.  2.  5.  4.
 10.]
[4. 4. 4. 3. 3. 3. 4. 1. 3. 3. 3. 3. 3. 1. 1. 2. 5. 2. 2.]
[4. 4. 5. 3. 1. 1. 1. 1. 5. 5. 2. 2. 1. 2. 5. 1. 2. 4. 1.]
[5. 5. 5. 5. 4. 3. 3. 4. 4. 5. 3. 3. 3. 2. 4. 2. 6. 1. 8.]
[ 2.  2.  5.  5.  4.  5.  5.  4.  5.  4.  5.  4.  2.  3.  3.  2.  5.  2.
 10.]
[5. 5. 5. 4. 1. 5. 3. 3. 5. 5. 5. 3. 3. 2. 4. 1. 5. 2. 2.]
[ 4.  4.  5.  5.  1.  2.  1.  1.  5.  2.  1.  4.  2.  1.  3.  2.  4.  4.
 10.]
[ 4.  5.  5.  5.  1.  2.  3.  3.  4.  3.  1.  3.  2.  2.  4.  2.  5.  4.
 10.]
[ 5.  4.  5.  4.  4.  5.  4.  1.  5.  4.  3.  1.  2.  2.  2.  2.  5.  3.
 10.]
[4. 4. 5. 4. 4. 4. 4. 4. 4. 5. 5. 5. 2. 2. 4. 2. 5. 2. 3.]
[3. 4. 4. 4. 1. 3. 3. 1. 4. 3. 4. 4. 2. 2. 2. 1. 5. 2. 2.]
[4. 4. 4. 4. 2. 2. 2. 1. 4. 3. 3. 3. 1. 1. 3. 1. 4. 2. 2.]
[4. 4. 5. 3. 1. 4. 3. 1. 5. 5. 3. 3. 3. 2. 4. 2. 2. 4. 6.]
[3. 4. 5. 4. 1. 2. 4. 1. 3. 4. 2. 4. 1. 3. 5. 2. 2. 3. 6.]
[ 3.  4.  5.  4.  1.  1.  1.  2.  4.  5.  4.  4.  2.  1.  3.  2.  5.  3.
 10.]
[4. 3. 4. 4. 1. 4. 3. 1. 5. 4. 4. 3. 2. 1. 4. 2. 5. 2. 2.]
[4. 4. 5. 3. 1. 4. 2. 1. 4. 4. 1. 3. 1. 2. 3. 2. 2. 3. 6.]
[4. 4. 4. 4. 2. 2. 4. 2. 4. 4. 2. 4. 1. 2. 4. 2. 2. 4. 6.]
[4. 4. 3. 5. 2. 2. 3. 3. 2. 4. 3. 3. 1. 2. 4. 1. 2. 3. 6.]
[5. 5. 5. 5. 1. 5. 5. 4. 5. 2. 4. 5. 2. 3. 3. 1. 4. 2. 2.]
[2. 4. 5. 5. 2. 4. 5. 4. 5. 4. 4. 5. 3. 2. 3. 1. 3. 2. 2.]
[5. 4. 5. 3. 1. 3. 3. 1. 5. 3. 4. 2. 3. 1. 3. 2. 5. 2. 7.]
[5. 5. 5. 5. 2. 3. 1. 2. 5. 4. 1. 3. 3. 2. 4. 1. 2. 3. 6.]
[4. 4. 4. 4. 4. 4. 4. 3. 4. 4. 3. 4. 3. 1. 1. 1. 4. 2. 2.]
[5. 5. 4. 5. 2. 1. 4. 2. 5. 5. 1. 5. 1. 2. 4. 1. 2. 3. 6.]
[5. 4. 4. 4. 3. 5. 4. 2. 4. 4. 4. 4. 4. 1. 2. 1. 2. 3. 6.]
[5. 5. 5. 5. 1. 5. 2. 2. 5. 5. 5. 4. 2. 2. 5. 2. 5. 2. 2.]
[5. 4. 5. 4. 1. 5. 1. 1. 5. 4. 1. 3. 4. 1. 3. 2. 2. 2. 6.]
[1. 5. 5. 1. 1. 5. 2. 1. 5. 2. 2. 4. 1. 2. 5. 2. 5. 5. 3.]
[ 4.  4.  5.  4.  1.  5.  4.  1.  5.  3.  1.  1.  2.  2.  4.  2.  4.  2.
 11.]
[3. 2. 5. 5. 1. 4. 1. 1. 5. 3. 3. 3. 2. 1. 4. 2. 4. 5. 2.]
[3. 3. 4. 4. 3. 3. 3. 4. 4. 3. 3. 3. 4. 1. 2. 2. 5. 4. 2.]
[4. 5. 5. 5. 1. 1. 4. 1. 4. 5. 4. 3. 3. 2. 3. 1. 2. 3. 6.]
[5. 4. 5. 3. 1. 4. 5. 2. 4. 5. 5. 4. 1. 2. 3. 1. 2. 2. 2.]
[ 2.  4.  4.  4.  3.  3.  3.  1.  4.  5.  4.  3.  4.  1.  5.  2.  5.  4.
 10.]
[3. 3. 5. 5. 2. 2. 1. 1. 5. 4. 1. 4. 3. 2. 4. 2. 2. 3. 6.]
[5. 4. 4. 4. 3. 2. 1. 1. 5. 5. 4. 1. 1. 2. 3. 1. 5. 4. 2.]
[4. 4. 5. 4. 1. 3. 3. 1. 4. 4. 3. 4. 1. 1. 3. 1. 2. 2. 6.]
[4. 4. 5. 4. 1. 2. 4. 1. 4. 4. 5. 4. 2. 2. 5. 2. 2. 3. 6.]
[5. 4. 5. 5. 1. 3. 3. 1. 5. 5. 5. 3. 2. 3. 4. 2. 3. 4. 2.]
[3. 4. 4. 3. 2. 4. 3. 1. 5. 4. 1. 3. 4. 2. 4. 2. 2. 3. 6.]
[4. 4. 5. 4. 1. 4. 2. 1. 4. 5. 1. 3. 1. 3. 5. 2. 2. 3. 6.]
[4. 5. 5. 2. 1. 5. 1. 1. 5. 4. 1. 5. 2. 2. 3. 2. 2. 3. 2.]
[4. 4. 5. 4. 3. 3. 4. 2. 4. 4. 3. 3. 2. 1. 3. 1. 4. 2. 2.]
[3. 5. 4. 4. 1. 2. 1. 3. 5. 4. 1. 3. 2. 1. 3. 1. 5. 2. 1.]
[5. 3. 4. 4. 4. 3. 5. 1. 4. 4. 5. 4. 3. 2. 1. 1. 2. 2. 1.]
[4. 4. 4. 4. 4. 4. 4. 4. 4. 4. 4. 4. 1. 3. 3. 1. 4. 2. 2.]
[3. 5. 4. 3. 1. 3. 3. 3. 4. 3. 3. 3. 3. 1. 5. 1. 5. 2. 1.]
[3. 4. 4. 4. 3. 2. 2. 3. 4. 4. 4. 3. 2. 2. 5. 1. 3. 4. 9.]
[5. 4. 4. 5. 1. 3. 3. 3. 5. 4. 2. 3. 3. 1. 3. 2. 2. 3. 6.]
[3. 4. 4. 5. 1. 3. 5. 5. 5. 4. 5. 5. 3. 3. 3. 1. 3. 2. 2.]
[3. 4. 4. 4. 1. 2. 1. 2. 4. 4. 4. 4. 2. 1. 4. 2. 2. 4. 6.]
[4. 4. 5. 5. 1. 2. 1. 1. 5. 4. 1. 5. 2. 1. 2. 1. 2. 3. 6.]
[4. 4. 4. 5. 1. 2. 2. 3. 2. 4. 4. 4. 4. 2. 2. 1. 4. 2. 2.]
[5. 5. 5. 5. 3. 3. 3. 1. 5. 5. 1. 1. 3. 2. 5. 1. 3. 1. 3.]
[4. 5. 5. 5. 1. 5. 2. 1. 5. 5. 1. 5. 3. 1. 2. 1. 4. 2. 5.]
[1. 5. 5. 5. 1. 5. 5. 5. 5. 5. 5. 5. 3. 1. 5. 2. 4. 4. 4.]
[3. 5. 5. 4. 3. 2. 3. 1. 4. 5. 5. 5. 3. 2. 4. 1. 1. 1. 6.]
[3. 4. 4. 5. 1. 2. 4. 3. 5. 4. 4. 4. 3. 1. 1. 1. 2. 3. 6.]
[3. 3. 4. 3. 2. 4. 3. 3. 4. 3. 2. 4. 1. 2. 4. 1. 2. 3. 6.]
Cluster  0
[3. 2. 2. 3. 5. 3. 2. 4. 2. 1. 2. 3. 4. 2. 3. 1. 3. 3. 5.]
[2. 3. 3. 4. 4. 3. 1. 1. 5. 3. 1. 3. 1. 2. 3. 1. 2. 4. 6.]
[4. 4. 4. 3. 1. 1. 1. 2. 4. 4. 2. 3. 2. 2. 3. 1. 2. 3. 6.]
[4. 2. 3. 4. 1. 2. 2. 1. 4. 4. 4. 2. 1. 4. 4. 1. 2. 4. 6.]
[2. 2. 1. 1. 3. 1. 1. 4. 1. 1. 1. 1. 2. 4. 5. 1. 3. 4. 3.]
[5. 1. 5. 3. 1. 1. 1. 1. 1. 5. 1. 1. 1. 2. 4. 1. 3. 3. 6.]
[3. 2. 4. 2. 1. 2. 1. 1. 2. 4. 1. 2. 1. 1. 4. 1. 2. 2. 6.]
[3. 4. 4. 4. 1. 1. 1. 1. 4. 3. 1. 1. 3. 2. 3. 2. 2. 2. 6.]
[1. 1. 1. 1. 1. 1. 1. 1. 1. 1. 1. 1. 2. 2. 2. 1. 3. 3. 6.]
[2. 4. 4. 4. 2. 2. 3. 2. 4. 4. 4. 2. 3. 1. 1. 1. 2. 3. 6.]
[2. 1. 3. 4. 4. 3. 4. 2. 5. 2. 4. 2. 2. 2. 3. 1. 2. 3. 6.]
[4. 3. 4. 3. 1. 4. 3. 3. 3. 3. 1. 1. 2. 2. 4. 2. 2. 4. 6.]
[3. 3. 3. 3. 3. 3. 3. 3. 3. 3. 3. 3. 4. 1. 1. 2. 2. 4. 6.]
[5. 3. 2. 4. 1. 3. 2. 2. 2. 4. 1. 3. 3. 2. 3. 2. 2. 3. 6.]
[3. 3. 4. 3. 1. 3. 1. 4. 4. 4. 3. 2. 1. 2. 3. 2. 2. 3. 6.]
[4. 5. 4. 2. 1. 1. 2. 2. 5. 3. 1. 1. 1. 2. 3. 1. 2. 3. 6.]
[4. 1. 3. 2. 1. 1. 4. 2. 4. 4. 1. 4. 3. 1. 3. 2. 2. 3. 6.]
[2. 4. 5. 3. 1. 3. 3. 1. 5. 3. 3. 1. 3. 2. 4. 1. 2. 3. 6.]
[4. 3. 4. 3. 1. 3. 4. 1. 3. 3. 2. 3. 1. 2. 4. 1. 2. 2. 6.]
[4. 2. 5. 4. 1. 1. 1. 1. 5. 3. 1. 1. 2. 2. 4. 2. 2. 2. 6.]
[3. 4. 4. 3. 1. 1. 1. 1. 4. 3. 3. 3. 4. 1. 3. 2. 2. 2. 6.]
[4. 4. 4. 4. 1. 1. 1. 1. 4. 3. 1. 1. 4. 1. 2. 1. 2. 4. 6.]
[4. 2. 3. 2. 1. 3. 3. 1. 3. 2. 4. 4. 4. 1. 4. 1. 2. 4. 6.]
[2. 4. 4. 3. 1. 4. 3. 1. 4. 3. 1. 2. 4. 2. 4. 2. 2. 3. 6.]
[ 4.  3.  4.  1.  1.  1.  1.  1.  5.  3.  4.  2.  3.  2.  4.  1.  4.  2.
 11.]
[4. 4. 4. 2. 1. 1. 1. 1. 4. 2. 1. 4. 2. 2. 2. 2. 1. 1. 6.]
[4. 3. 4. 4. 1. 1. 1. 1. 4. 5. 1. 1. 1. 1. 2. 1. 2. 3. 6.]
[4. 3. 4. 4. 2. 2. 2. 3. 3. 4. 2. 4. 4. 1. 1. 1. 2. 3. 6.]
[2. 1. 1. 1. 1. 4. 1. 1. 4. 1. 1. 1. 2. 2. 3. 1. 5. 2. 2.]
[4. 1. 4. 1. 1. 4. 2. 1. 4. 3. 2. 2. 1. 1. 3. 1. 2. 3. 6.]
[2. 4. 3. 4. 1. 4. 4. 1. 4. 3. 1. 1. 2. 2. 4. 2. 2. 3. 6.]
[5. 1. 4. 3. 1. 1. 1. 1. 5. 5. 5. 1. 2. 3. 3. 2. 5. 2. 2.]
[ 3.  4.  4.  2.  1.  1.  1.  1.  5.  3.  1.  3.  2.  1.  2.  2.  5.  4.
 10.]
[4. 4. 3. 3. 2. 2. 4. 1. 4. 3. 4. 2. 2. 3. 5. 1. 2. 3. 6.]
[3. 3. 4. 4. 2. 5. 4. 1. 4. 1. 1. 1. 3. 2. 2. 1. 2. 2. 6.]
[4. 3. 4. 3. 1. 3. 1. 1. 3. 1. 4. 3. 2. 2. 4. 2. 5. 1. 4.]
[1. 1. 1. 1. 1. 1. 1. 1. 1. 1. 1. 1. 2. 1. 4. 1. 2. 2. 6.]
[4. 3. 3. 2. 1. 2. 2. 1. 4. 3. 2. 3. 2. 1. 4. 2. 2. 3. 6.]
[3. 4. 4. 2. 1. 1. 1. 1. 5. 4. 3. 3. 1. 2. 4. 2. 2. 3. 6.]
[ 5.  4.  3.  4.  2.  1.  1.  1.  4.  5.  1.  3.  4.  1.  3.  2.  5.  3.
 10.]
[4. 3. 3. 3. 1. 3. 3. 1. 5. 3. 3. 3. 4. 1. 2. 1. 2. 3. 6.]
[ 5.  2.  5.  2.  1.  1.  1.  1.  5.  4.  3.  1.  1.  1.  4.  2.  5.  4.
 10.]
[1. 1. 5. 4. 3. 4. 3. 1. 4. 4. 2. 3. 3. 2. 2. 2. 5. 2. 8.]
[1. 3. 4. 2. 1. 5. 2. 1. 4. 3. 4. 4. 4. 1. 4. 2. 4. 2. 2.]
[4. 3. 3. 3. 1. 3. 3. 1. 5. 2. 1. 4. 4. 1. 2. 1. 2. 2. 6.]
[4. 2. 5. 4. 1. 3. 1. 1. 4. 2. 2. 3. 4. 1. 1. 1. 2. 3. 6.]
[4. 1. 3. 1. 2. 3. 3. 1. 4. 4. 5. 3. 4. 2. 4. 1. 6. 4. 8.]
[5. 3. 1. 3. 1. 1. 1. 1. 5. 1. 1. 1. 2. 1. 2. 1. 5. 4. 3.]
[4. 4. 3. 4. 2. 1. 4. 1. 5. 5. 5. 1. 3. 1. 1. 1. 5. 4. 9.]
[ 5.  1.  1.  4.  1.  1.  1.  1.  5.  4.  5.  5.  2.  2.  2.  1.  5.  4.
 10.]
[ 3.  3.  3.  3.  1.  1.  3.  3.  3.  5.  5.  3.  4.  3.  5.  1.  5.  2.
 11.]
[4. 3. 4. 3. 1. 1. 1. 1. 3. 3. 3. 1. 1. 2. 3. 1. 5. 2. 2.]
[3. 1. 2. 4. 1. 4. 1. 2. 5. 2. 1. 1. 3. 2. 2. 1. 5. 2. 8.]
[ 4.  3.  3.  2.  1.  4.  3.  1.  4.  3.  4.  3.  4.  2.  3.  1.  5.  4.
 10.]
[5. 5. 5. 5. 1. 1. 3. 3. 3. 1. 5. 1. 2. 1. 2. 1. 5. 4. 8.]
[ 3.  3.  3.  3.  1.  5.  5.  3.  3.  2.  2.  3.  4.  1.  3.  2.  5.  4.
 10.]
[ 4.  4.  3.  3.  1.  1.  1.  1.  5.  4.  1.  3.  2.  2.  5.  1.  5.  3.
 10.]
[ 3.  5.  5.  3.  2.  1.  1.  1.  5.  1.  1.  3.  3.  1.  1.  1.  2.  3.
 11.]
[1. 2. 4. 4. 3. 1. 1. 1. 4. 1. 1. 1. 4. 1. 3. 2. 5. 3. 2.]
[ 4.  1.  4.  4.  1.  3.  3.  1.  5.  4.  4.  3.  3.  1.  4.  2.  5.  4.
 10.]
[ 3.  2.  3.  1.  4.  3.  3.  1.  4.  3.  2.  1.  4.  2.  2.  3.  5.  2.
 10.]
[3.         1.         4.         3.         1.         5.
 3.         3.         4.         4.         4.         3.
 2.33333333 1.69477912 3.14056225 1.44578313 3.10843373 2.79116466
 5.32128514]
[2. 1. 3. 3. 4. 5. 4. 2. 3. 4. 2. 3. 3. 2. 5. 1. 1. 2. 4.]
[4.         4.         4.         4.         3.         1.
 4.         3.         2.         2.         2.         3.
 2.         1.         2.         1.44578313 3.10843373 2.79116466
 5.32128514]
[5. 3. 4. 4. 1. 1. 3. 1. 3. 4. 1. 2. 2. 2. 4. 2. 5. 5. 3.]
[4. 4. 4. 4. 1. 1. 1. 1. 4. 4. 1. 3. 4. 1. 2. 2. 5. 4. 8.]
[4. 3. 4. 4. 1. 1. 1. 1. 5. 3. 3. 1. 1. 2. 3. 2. 5. 4. 2.]
[3.         2.         5.         1.         1.         5.
 3.         1.         5.         1.         1.         1.
 2.33333333 1.69477912 3.14056225 1.44578313 3.10843373 2.79116466
 5.32128514]
[ 4.  4.  3.  3.  3.  2.  1.  2.  4.  3.  4.  3.  3.  1.  1.  2.  5.  4.
 10.]
[5. 2. 3. 3. 1. 1. 1. 3. 5. 4. 1. 2. 2. 2. 4. 2. 3. 4. 2.]
[4. 3. 5. 4. 1. 1. 1. 1. 4. 1. 1. 2. 1. 1. 4. 1. 2. 3. 6.]
[4. 4. 3. 3. 2. 2. 2. 1. 3. 4. 1. 4. 4. 2. 4. 1. 2. 4. 9.]
[4. 2. 4. 2. 1. 3. 2. 2. 4. 5. 2. 2. 2. 1. 3. 1. 2. 4. 6.]
[3. 1. 3. 4. 1. 1. 2. 1. 3. 3. 3. 2. 4. 1. 3. 1. 2. 3. 6.]
[3. 4. 4. 4. 1. 1. 1. 1. 4. 3. 1. 3. 2. 2. 2. 1. 5. 1. 1.]
[4. 4. 5. 3. 1. 1. 1. 2. 4. 3. 1. 3. 1. 1. 3. 1. 2. 2. 6.]
[5. 4. 5. 4. 1. 1. 2. 1. 4. 1. 1. 1. 3. 1. 3. 2. 2. 3. 6.]
[3. 4. 3. 4. 1. 1. 1. 2. 4. 3. 2. 2. 4. 1. 1. 1. 2. 3. 6.]
[3. 4. 4. 4. 1. 1. 1. 1. 4. 3. 3. 4. 2. 2. 2. 1. 5. 4. 1.]
[5. 2. 4. 1. 1. 1. 5. 3. 4. 4. 1. 4. 2. 3. 5. 1. 2. 3. 6.]
[4. 3. 4. 2. 1. 1. 1. 1. 4. 3. 1. 3. 2. 2. 5. 2. 2. 3. 6.]
[4. 4. 5. 3. 1. 1. 3. 3. 4. 3. 1. 3. 2. 2. 5. 1. 2. 3. 6.]
[4. 1. 5. 1. 2. 1. 1. 1. 5. 3. 4. 1. 2. 1. 3. 2. 6. 1. 8.]
[4. 3. 4. 2. 1. 1. 2. 1. 4. 2. 1. 1. 4. 2. 3. 2. 2. 3. 2.]
[4. 3. 5. 4. 1. 1. 1. 1. 4. 4. 1. 3. 3. 2. 4. 2. 2. 4. 6.]
[5. 4. 3. 1. 1. 1. 1. 1. 4. 1. 1. 2. 3. 2. 3. 2. 4. 3. 2.]
[3. 4. 4. 3. 1. 1. 1. 1. 3. 3. 1. 3. 1. 1. 4. 1. 2. 3. 2.]
[4. 3. 4. 3. 1. 2. 3. 3. 1. 4. 2. 2. 1. 1. 4. 1. 4. 4. 2.]
[4. 4. 4. 2. 1. 1. 1. 1. 4. 3. 1. 3. 3. 1. 4. 2. 2. 2. 6.]
[4. 3. 4. 3. 2. 4. 2. 3. 2. 3. 3. 3. 3. 1. 2. 1. 4. 1. 5.]
[3. 3. 4. 4. 3. 4. 4. 3. 4. 2. 2. 3. 3. 1. 3. 1. 2. 4. 6.]
[4. 4. 5. 3. 1. 1. 1. 1. 2. 4. 1. 4. 1. 1. 4. 1. 3. 4. 2.]
[1. 2. 4. 1. 1. 1. 1. 1. 5. 1. 1. 1. 3. 1. 3. 2. 2. 4. 6.]
[2. 4. 4. 4. 1. 1. 1. 1. 4. 3. 2. 3. 1. 1. 3. 1. 2. 2. 6.]
[3. 3. 4. 3. 1. 1. 1. 1. 2. 1. 1. 2. 1. 1. 4. 1. 2. 3. 6.]
[4. 3. 4. 3. 1. 2. 1. 1. 3. 4. 4. 3. 3. 1. 3. 2. 2. 3. 6.]
Cluster mean
 [[3.5        2.86458333 3.64583333 2.9375     1.42708333 2.02083333
  1.95833333 1.51041667 3.78125    2.95833333 2.11458333 2.33333333
  2.50694444 1.5978079  3.10709505 1.42018072 3.07630522 2.9934739
  5.97879016]
 [3.94771242 4.1372549  4.47712418 4.03921569 1.88888889 3.05228758
  2.77124183 1.8627451  4.38562092 4.08496732 3.         3.45751634
  2.33115468 1.83316272 3.30524713 1.54689346 3.31144185 2.82841169
  5.22174974]]





Cluster variance
 [[1.10416667 1.28374566 0.99956597 1.07942708 0.76551649 1.70789931
  1.33159722 0.72905816 1.12923177 1.37326389 1.74728733 1.09722222
  1.14115548 0.44434901 1.15560894 0.25674157 1.94246161 0.77215362
  5.80561224]
 [0.80772353 0.52364475 0.34097996 0.75663206 1.13144517 1.57896536
  1.69276774 1.30795848 0.49835533 0.5875518  1.93464052 0.96714939
  0.80246439 0.58958884 1.12315614 0.23811236 1.85771344 0.80233309
  7.22284891]]
